{
	"id": "3012",
	"nom": "dilluns 29, vespre de logs",
	"data": "2018-10-29 18:47:55",
	"autor": "sbt_xcc",
	"programa": {
		"id": "1",
		"nom": "El Temps"
	},
	"mapa": [{
		"id": "346033",
		"nom": "Nou mapa",
		"ordre": "0",
		"estat": "Actiu",
		"transicio": "0",
		"tnom": "tall",
		"tduracio": "0",
		"simbols": [{
			"id": "map4",
			"tipussimbol": {
				"nom": "mapa"
			},
			"subtipus": "Balears",
			"textFormat": "",
			"fonsFormat": null,
			"text": "",
			"px": "0",
			"pz": "0",
			"rotacio": "0",
			"imatgeId": null,
			"cobertura": null,
			"durada": null,
			"transicio": null,
			"objecte3D": {
				"URL": "Models",
				"versio": "2",
				"asset": "mapaBalears.j3o"
			}
		}, {
			"id": "rut23",
			"tipussimbol": {
				"nom": "ruta"
			},
			"subtipus": "r_balears",
			"textFormat": "",
			"fonsFormat": null,
			"text": "",
			"px": "0.205729",
			"pz": "-0.270833",
			"rotacio": "0",
			"imatgeId": null,
			"cobertura": null,
			"durada": null,
			"transicio": null,
			"objecte3D": {
				"URL": "Models",
				"versio": "2",
				"asset": "rut23"
			}
		}, {
			"id": "foto1",
			"tipussimbol": {
				"nom": "imatge"
			},
			"subtipus": "foto_ruta_contain",
			"textFormat": "#AAAAAA;#8888FF",
			"fonsFormat": null,
			"text": "Jaime Dimas;Muro",
			"px": "0",
			"pz": "0",
			"rotacio": "0",
			"imatgeId": "5bd740c4ef995",
			"cobertura": null,
			"durada": null,
			"transicio": null,
			"objecte3D": {
				"URL": "Models",
				"versio": "1",
				"asset": "foto1.j3o"
			}
		}, {
			"id": "foto1",
			"tipussimbol": {
				"nom": "imatge"
			},
			"subtipus": "foto_ruta_contain",
			"textFormat": "#AAAAAA;#8888FF",
			"fonsFormat": null,
			"text": "M Rosa Cerd\u00e0;Campos",
			"px": "0",
			"pz": "0",
			"rotacio": "0",
			"imatgeId": "5bd740cd6c36b",
			"cobertura": null,
			"durada": null,
			"transicio": null,
			"objecte3D": {
				"URL": "Models",
				"versio": "1",
				"asset": "foto1.j3o"
			}
		}, {
			"id": "foto1",
			"tipussimbol": {
				"nom": "imatge"
			},
			"subtipus": "foto_ruta_contain",
			"textFormat": "#AAAAAA;#8888FF",
			"fonsFormat": null,
			"text": "Joan Ferragut;Son Gual",
			"px": "0",
			"pz": "0",
			"rotacio": "0",
			"imatgeId": "5bd740d58e591",
			"cobertura": null,
			"durada": null,
			"transicio": null,
			"objecte3D": {
				"URL": "Models",
				"versio": "1",
				"asset": "foto1.j3o"
			}
		}, {
			"id": "foto1",
			"tipussimbol": {
				"nom": "imatge"
			},
			"subtipus": "foto_ruta_contain",
			"textFormat": "#AAAAAA;#8888FF",
			"fonsFormat": null,
			"text": "Vicent Torres;Cala Saona",
			"px": "0",
			"pz": "0",
			"rotacio": "0",
			"imatgeId": "5bd741364ae28",
			"cobertura": null,
			"durada": null,
			"transicio": null,
			"objecte3D": {
				"URL": "Models",
				"versio": "1",
				"asset": "foto1.j3o"
			}
		}, {
			"id": "foto1",
			"tipussimbol": {
				"nom": "imatge"
			},
			"subtipus": "foto_ruta_contain",
			"textFormat": "#AAAAAA;#8888FF",
			"fonsFormat": null,
			"text": "Jaume Busquets;Esporles",
			"px": "0",
			"pz": "0",
			"rotacio": "0",
			"imatgeId": "5bd740de3245f",
			"cobertura": null,
			"durada": null,
			"transicio": null,
			"objecte3D": {
				"URL": "Models",
				"versio": "1",
				"asset": "foto1.j3o"
			}
		}, {
			"id": "foto1",
			"tipussimbol": {
				"nom": "imatge"
			},
			"subtipus": "foto_ruta_contain",
			"textFormat": "#AAAAAA;#8888FF",
			"fonsFormat": null,
			"text": "Toni Adrover;Calonge",
			"px": "0",
			"pz": "0",
			"rotacio": "0",
			"imatgeId": "5bd740e8b5e0d",
			"cobertura": null,
			"durada": null,
			"transicio": null,
			"objecte3D": {
				"URL": "Models",
				"versio": "1",
				"asset": "foto1.j3o"
			}
		}, {
			"id": "foto1",
			"tipussimbol": {
				"nom": "imatge"
			},
			"subtipus": "foto_ruta_contain",
			"textFormat": "#AAAAAA;#8888FF",
			"fonsFormat": null,
			"text": "Carme Pou;Palma",
			"px": "0",
			"pz": "0",
			"rotacio": "0",
			"imatgeId": "5bd740f297d88",
			"cobertura": null,
			"durada": null,
			"transicio": null,
			"objecte3D": {
				"URL": "Models",
				"versio": "1",
				"asset": "foto1.j3o"
			}
		}, {
			"id": "foto1",
			"tipussimbol": {
				"nom": "imatge"
			},
			"subtipus": "foto_ruta_contain",
			"textFormat": "#AAAAAA;#8888FF",
			"fonsFormat": null,
			"text": "Bep Gomila;Ciutadella",
			"px": "0",
			"pz": "0",
			"rotacio": "0",
			"imatgeId": "5bd740fbc4426",
			"cobertura": null,
			"durada": null,
			"transicio": null,
			"objecte3D": {
				"URL": "Models",
				"versio": "1",
				"asset": "foto1.j3o"
			}
		}, {
			"id": "foto1",
			"tipussimbol": {
				"nom": "imatge"
			},
			"subtipus": "foto_ruta_contain",
			"textFormat": "#AAAAAA;#8888FF",
			"fonsFormat": null,
			"text": "M Ant\u00f2nia Pastor;Manacor",
			"px": "0",
			"pz": "0",
			"rotacio": "0",
			"imatgeId": "5bd7410498490",
			"cobertura": null,
			"durada": null,
			"transicio": null,
			"objecte3D": {
				"URL": "Models",
				"versio": "1",
				"asset": "foto1.j3o"
			}
		}, {
			"id": "foto1",
			"tipussimbol": {
				"nom": "imatge"
			},
			"subtipus": "foto_ruta_contain",
			"textFormat": "#AAAAAA;#8888FF",
			"fonsFormat": null,
			"text": "Fina Mar\u00ed;Vila",
			"px": "0",
			"pz": "0",
			"rotacio": "0",
			"imatgeId": "5bd7412e13ff2",
			"cobertura": null,
			"durada": null,
			"transicio": null,
			"objecte3D": {
				"URL": "Models",
				"versio": "1",
				"asset": "foto1.j3o"
			}
		}, {
			"id": "foto1",
			"tipussimbol": {
				"nom": "imatge"
			},
			"subtipus": "foto_ruta_contain",
			"textFormat": "#AAAAAA;#8888FF",
			"fonsFormat": null,
			"text": "Maika Rodr\u00edguez;Can Pastilla",
			"px": "0",
			"pz": "0",
			"rotacio": "0",
			"imatgeId": "5bd7410d61cfe",
			"cobertura": null,
			"durada": null,
			"transicio": null,
			"objecte3D": {
				"URL": "Models",
				"versio": "1",
				"asset": "foto1.j3o"
			}
		}, {
			"id": "foto1",
			"tipussimbol": {
				"nom": "imatge"
			},
			"subtipus": "foto_ruta_contain",
			"textFormat": "#AAAAAA;#8888FF",
			"fonsFormat": null,
			"text": "Pep Viv\u00f3;Badia de Palma",
			"px": "0",
			"pz": "0",
			"rotacio": "0",
			"imatgeId": "5bd74114b57cc",
			"cobertura": null,
			"durada": null,
			"transicio": null,
			"objecte3D": {
				"URL": "Models",
				"versio": "1",
				"asset": "foto1.j3o"
			}
		}, {
			"id": "foto1",
			"tipussimbol": {
				"nom": "imatge"
			},
			"subtipus": "foto_ruta_contain",
			"textFormat": "#AAAAAA;#8888FF",
			"fonsFormat": null,
			"text": "Merc\u00e8 Bonet;Sa Cabaneta",
			"px": "0",
			"pz": "0",
			"rotacio": "0",
			"imatgeId": "5bd7411e72190",
			"cobertura": null,
			"durada": null,
			"transicio": null,
			"objecte3D": {
				"URL": "Models",
				"versio": "1",
				"asset": "foto1.j3o"
			}
		}, {
			"id": "foto1",
			"tipussimbol": {
				"nom": "imatge"
			},
			"subtipus": "foto_ruta_contain",
			"textFormat": "#AAAAAA;#8888FF",
			"fonsFormat": null,
			"text": "Fuli;Port de S\u00f3ller",
			"px": "0",
			"pz": "0",
			"rotacio": "0",
			"imatgeId": "5bd74125693c1",
			"cobertura": null,
			"durada": null,
			"transicio": null,
			"objecte3D": {
				"URL": "Models",
				"versio": "1",
				"asset": "foto1.j3o"
			}
		}]
	}, {
		"id": "346034",
		"nom": "Nou mapa",
		"ordre": "1",
		"estat": "Actiu",
		"transicio": "0",
		"tnom": "tall",
		"tduracio": "0",
		"simbols": [{
			"id": "map6",
			"tipussimbol": {
				"nom": "mapa"
			},
			"subtipus": "m_foto",
			"textFormat": "",
			"fonsFormat": null,
			"text": "",
			"px": "0",
			"pz": "0",
			"rotacio": "0",
			"imatgeId": null,
			"cobertura": null,
			"durada": null,
			"transicio": null,
			"objecte3D": {
				"URL": "Models",
				"versio": "2",
				"asset": "map6.j3o"
			}
		}, {
			"id": "rut31",
			"tipussimbol": {
				"nom": "ruta"
			},
			"subtipus": "r_fotos",
			"textFormat": "",
			"fonsFormat": null,
			"text": "",
			"px": "0",
			"pz": "0",
			"rotacio": "0",
			"imatgeId": null,
			"cobertura": null,
			"durada": null,
			"transicio": null,
			"objecte3D": {
				"URL": "Models",
				"versio": "1",
				"asset": "rut31"
			}
		}]
	}, {
		"id": "346035",
		"nom": "Nou mapa",
		"ordre": "2",
		"estat": "Actiu",
		"transicio": "0",
		"tnom": "tall",
		"tduracio": "0",
		"simbols": [{
			"id": "map4",
			"tipussimbol": {
				"nom": "mapa"
			},
			"subtipus": "Balears",
			"textFormat": "",
			"fonsFormat": null,
			"text": "",
			"px": "0",
			"pz": "0",
			"rotacio": "0",
			"imatgeId": null,
			"cobertura": null,
			"durada": null,
			"transicio": null,
			"objecte3D": {
				"URL": "Models",
				"versio": "2",
				"asset": "mapaBalears.j3o"
			}
		}, {
			"id": "rut23",
			"tipussimbol": {
				"nom": "ruta"
			},
			"subtipus": "r_balears",
			"textFormat": "",
			"fonsFormat": null,
			"text": "",
			"px": "0.205729",
			"pz": "-0.270833",
			"rotacio": "0",
			"imatgeId": null,
			"cobertura": null,
			"durada": null,
			"transicio": null,
			"objecte3D": {
				"URL": "Models",
				"versio": "2",
				"asset": "rut23"
			}
		}, {
			"id": "chy1",
			"tipussimbol": {
				"nom": "textChyron"
			},
			"subtipus": "text normal",
			"textFormat": "#000000",
			"fonsFormat": null,
			"text": "PRECIPITACI\u00d3 EPISODI (mm)",
			"px": "-0.788737",
			"pz": "-0.857707",
			"rotacio": "0",
			"imatgeId": null,
			"cobertura": null,
			"durada": null,
			"transicio": null,
			"objecte3D": {
				"URL": "Models",
				"versio": "0",
				"asset": "chy1.j3o"
			}
		}, {
			"id": "txt5",
			"tipussimbol": {
				"nom": "text"
			},
			"subtipus": "text ng\/bl",
			"textFormat": "#FFFFFF;#2222B2",
			"fonsFormat": null,
			"text": "Ciutadella;95",
			"px": "0.552083",
			"pz": "-0.882812",
			"rotacio": "0",
			"imatgeId": null,
			"cobertura": null,
			"durada": null,
			"transicio": null,
			"objecte3D": {
				"URL": "Models",
				"versio": "1",
				"asset": "txt5.j3o"
			}
		}, {
			"id": "txt5",
			"tipussimbol": {
				"nom": "text"
			},
			"subtipus": "text ng\/bl",
			"textFormat": "#FFFFFF;#2222B2",
			"fonsFormat": null,
			"text": "Es Mercadal;171",
			"px": "0.773356",
			"pz": "-0.947673",
			"rotacio": "0",
			"imatgeId": null,
			"cobertura": null,
			"durada": null,
			"transicio": null,
			"objecte3D": {
				"URL": "Models",
				"versio": "1",
				"asset": "txt5.j3o"
			}
		}, {
			"id": "txt5",
			"tipussimbol": {
				"nom": "text"
			},
			"subtipus": "text ng\/bl",
			"textFormat": "#FFFFFF;#2222B2",
			"fonsFormat": null,
			"text": "Binissafúller;90",
			"px": "0.870646",
			"pz": "-0.691732",
			"rotacio": "0",
			"imatgeId": null,
			"cobertura": null,
			"durada": null,
			"transicio": null,
			"objecte3D": {
				"URL": "Models",
				"versio": "1",
				"asset": "txt5.j3o"
			}
		}, {
			"id": "txt5",
			"tipussimbol": {
				"nom": "text"
			},
			"subtipus": "text ng\/bl",
			"textFormat": "#FFFFFF;#2222B2",
			"fonsFormat": null,
			"text": "St Llu\u00eds;103",
			"px": "0.891561",
			"pz": "-0.828125",
			"rotacio": "0",
			"imatgeId": null,
			"cobertura": null,
			"durada": null,
			"transicio": null,
			"objecte3D": {
				"URL": "Models",
				"versio": "1",
				"asset": "txt5.j3o"
			}
		}, {
			"id": "txt5",
			"tipussimbol": {
				"nom": "text"
			},
			"subtipus": "text ng\/bl",
			"textFormat": "#FFFFFF;#2222B2",
			"fonsFormat": null,
			"text": "Pt. Pollen\u00e7a;92",
			"px": "0.209147",
			"pz": "-0.867188",
			"rotacio": "0",
			"imatgeId": null,
			"cobertura": null,
			"durada": null,
			"transicio": null,
			"objecte3D": {
				"URL": "Models",
				"versio": "1",
				"asset": "txt5.j3o"
			}
		}, {
			"id": "txt5",
			"tipussimbol": {
				"nom": "text"
			},
			"subtipus": "text ng\/bl",
			"textFormat": "#FFFFFF;#2222B2",
			"fonsFormat": null,
			"text": "Sa Tudossa;143",
			"px": "0.368083",
			"pz": "-0.721354",
			"rotacio": "0",
			"imatgeId": null,
			"cobertura": null,
			"durada": null,
			"transicio": null,
			"objecte3D": {
				"URL": "Models",
				"versio": "1",
				"asset": "txt5.j3o"
			}
		}, {
			"id": "txt5",
			"tipussimbol": {
				"nom": "text"
			},
			"subtipus": "text ng\/bl",
			"textFormat": "#FFFFFF;#2222B2",
			"fonsFormat": null,
			"text": "Valldemossa;183",
			"px": "-0.204346",
			"pz": "-0.697917",
			"rotacio": "0",
			"imatgeId": null,
			"cobertura": null,
			"durada": null,
			"transicio": null,
			"objecte3D": {
				"URL": "Models",
				"versio": "1",
				"asset": "txt5.j3o"
			}
		}, {
			"id": "txt5",
			"tipussimbol": {
				"nom": "text"
			},
			"subtipus": "text ng\/bl",
			"textFormat": "#FFFFFF;#2222B2",
			"fonsFormat": null,
			"text": "S\u00f3ller;170",
			"px": "-0.00260417",
			"pz": "-0.796875",
			"rotacio": "0",
			"imatgeId": null,
			"cobertura": null,
			"durada": null,
			"transicio": null,
			"objecte3D": {
				"URL": "Models",
				"versio": "1",
				"asset": "txt5.j3o"
			}
		}, {
			"id": "txt5",
			"tipussimbol": {
				"nom": "text"
			},
			"subtipus": "text ng\/bl",
			"textFormat": "#FFFFFF;#2222B2",
			"fonsFormat": null,
			"text": "Palma;68",
			"px": "-0.133423",
			"pz": "-0.484375",
			"rotacio": "0",
			"imatgeId": null,
			"cobertura": null,
			"durada": null,
			"transicio": null,
			"objecte3D": {
				"URL": "Models",
				"versio": "1",
				"asset": "txt5.j3o"
			}
		}, {
			"id": "txt5",
			"tipussimbol": {
				"nom": "text"
			},
			"subtipus": "text ng\/bl",
			"textFormat": "#FFFFFF;#2222B2",
			"fonsFormat": null,
			"text": "Porreres;72",
			"px": "0.112345",
			"pz": "-0.484375",
			"rotacio": "0",
			"imatgeId": null,
			"cobertura": null,
			"durada": null,
			"transicio": null,
			"objecte3D": {
				"URL": "Models",
				"versio": "1",
				"asset": "txt5.j3o"
			}
		}, {
			"id": "txt5",
			"tipussimbol": {
				"nom": "text"
			},
			"subtipus": "text ng\/bl",
			"textFormat": "#FFFFFF;#2222B2",
			"fonsFormat": null,
			"text": "Eivissa;60",
			"px": "-0.833333",
			"pz": "-0.03125",
			"rotacio": "0",
			"imatgeId": null,
			"cobertura": null,
			"durada": null,
			"transicio": null,
			"objecte3D": {
				"URL": "Models",
				"versio": "1",
				"asset": "txt5.j3o"
			}
		}, {
			"id": "txt5",
			"tipussimbol": {
				"nom": "text"
			},
			"subtipus": "text ng\/bl",
			"textFormat": "#FFFFFF;#2222B2",
			"fonsFormat": null,
			"text": "St. Antoni;42",
			"px": "-1.02352",
			"pz": "-0.119792",
			"rotacio": "0",
			"imatgeId": null,
			"cobertura": null,
			"durada": null,
			"transicio": null,
			"objecte3D": {
				"URL": "Models",
				"versio": "1",
				"asset": "txt5.j3o"
			}
		}, {
			"id": "txt5",
			"tipussimbol": {
				"nom": "text"
			},
			"subtipus": "text ng\/bl",
			"textFormat": "#FFFFFF;#2222B2",
			"fonsFormat": null,
			"text": "St Francesc;25",
			"px": "-0.869466",
			"pz": "0.140625",
			"rotacio": "0",
			"imatgeId": null,
			"cobertura": null,
			"durada": null,
			"transicio": null,
			"objecte3D": {
				"URL": "Models",
				"versio": "1",
				"asset": "txt5.j3o"
			}
		}, {
			"id": "txt5",
			"tipussimbol": {
				"nom": "text"
			},
			"subtipus": "text ng\/bl",
			"textFormat": "#FFFFFF;#2222B2",
			"fonsFormat": null,
			"text": "St. Joan;63",
			"px": "-0.802083",
			"pz": "-0.190104",
			"rotacio": "0",
			"imatgeId": null,
			"cobertura": null,
			"durada": null,
			"transicio": null,
			"objecte3D": {
				"URL": "Models",
				"versio": "1",
				"asset": "txt5.j3o"
			}
		}, {
			"id": "txt5",
			"tipussimbol": {
				"nom": "text"
			},
			"subtipus": "text ng\/bl",
			"textFormat": "#FFFFFF;#2222B2",
			"fonsFormat": null,
			"text": "Maria;68",
			"px": "0.203654",
			"pz": "-0.625",
			"rotacio": "0",
			"imatgeId": null,
			"cobertura": null,
			"durada": null,
			"transicio": null,
			"objecte3D": {
				"URL": "Models",
				"versio": "1",
				"asset": "txt5.j3o"
			}
		}, {
			"id": "txt5",
			"tipussimbol": {
				"nom": "text"
			},
			"subtipus": "text ng\/bl",
			"textFormat": "#FFFFFF;#2222B2",
			"fonsFormat": null,
			"text": "Felanitx;74",
			"px": "0.273926",
			"pz": "-0.380534",
			"rotacio": "0",
			"imatgeId": null,
			"cobertura": null,
			"durada": null,
			"transicio": null,
			"objecte3D": {
				"URL": "Models",
				"versio": "1",
				"asset": "txt5.j3o"
			}
		}, {
			"id": "txt5",
			"tipussimbol": {
				"nom": "text"
			},
			"subtipus": "text ng\/bl",
			"textFormat": "#FFFFFF;#2222B2",
			"fonsFormat": null,
			"text": "Estellencs;176",
			"px": "-0.412557",
			"pz": "-0.567708",
			"rotacio": "0",
			"imatgeId": null,
			"cobertura": null,
			"durada": null,
			"transicio": null,
			"objecte3D": {
				"URL": "Models",
				"versio": "1",
				"asset": "txt5.j3o"
			}
		}]
	}, {
		"id": "346036",
		"nom": "",
		"ordre": "3",
		"estat": "Actiu",
		"transicio": "0",
		"tnom": "tall",
		"tduracio": "0",
		"simbols": [{
			"id": "map4",
			"tipussimbol": {
				"nom": "mapa"
			},
			"subtipus": "Balears",
			"textFormat": "",
			"fonsFormat": null,
			"text": "",
			"px": "0",
			"pz": "0",
			"rotacio": "0",
			"imatgeId": null,
			"cobertura": null,
			"durada": null,
			"transicio": null,
			"objecte3D": {
				"URL": "Models",
				"versio": "2",
				"asset": "mapaBalears.j3o"
			}
		}, {
			"id": "chy1",
			"tipussimbol": {
				"nom": "textChyron"
			},
			"subtipus": "text normal",
			"textFormat": "#000000",
			"fonsFormat": null,
			"text": "DEM\u00c0, DIMARTS 30",
			"px": "-0.788208",
			"pz": "-0.855143",
			"rotacio": "0",
			"imatgeId": null,
			"cobertura": null,
			"durada": null,
			"transicio": null,
			"objecte3D": {
				"URL": "Models",
				"versio": "0",
				"asset": "chy1.j3o"
			}
		}, {
			"id": "txt7proximitat",
			"tipussimbol": {
				"nom": "text"
			},
			"subtipus": "text ng\/bl\/vr",
			"textFormat": "#FFFFFF;#2222B2;#B22222",
			"fonsFormat": null,
			"text": "Ciutadella;13\u00ba;18\u00ba",
			"px": "0.571289",
			"pz": "-0.867188",
			"rotacio": "0",
			"imatgeId": null,
			"cobertura": null,
			"durada": null,
			"transicio": null,
			"objecte3D": {
				"URL": "Models",
				"versio": "1",
				"asset": "txt1.j3o"
			}
		}, {
			"id": "txt7proximitat",
			"tipussimbol": {
				"nom": "text"
			},
			"subtipus": "text ng\/bl\/vr",
			"textFormat": "#FFFFFF;#2222B2;#B22222",
			"fonsFormat": null,
			"text": "Es Mercadal;13\u00ba;19\u00ba",
			"px": "0.800863",
			"pz": "-0.885173",
			"rotacio": "0",
			"imatgeId": null,
			"cobertura": null,
			"durada": null,
			"transicio": null,
			"objecte3D": {
				"URL": "Models",
				"versio": "1",
				"asset": "txt1.j3o"
			}
		}, {
			"id": "txt7proximitat",
			"tipussimbol": {
				"nom": "text"
			},
			"subtipus": "text ng\/bl\/vr",
			"textFormat": "#FFFFFF;#2222B2;#B22222",
			"fonsFormat": null,
			"text": "Ma\u00f3;13\u00ba;18\u00ba",
			"px": "0.899089",
			"pz": "-0.807292",
			"rotacio": "0",
			"imatgeId": null,
			"cobertura": null,
			"durada": null,
			"transicio": null,
			"objecte3D": {
				"URL": "Models",
				"versio": "1",
				"asset": "txt1.j3o"
			}
		}, {
			"id": "txt7proximitat",
			"tipussimbol": {
				"nom": "text"
			},
			"subtipus": "text ng\/bl\/vr",
			"textFormat": "#FFFFFF;#2222B2;#B22222",
			"fonsFormat": null,
			"text": "Inca;11\u00ba;20\u00ba",
			"px": "0.0504557",
			"pz": "-0.63029",
			"rotacio": "0",
			"imatgeId": null,
			"cobertura": null,
			"durada": null,
			"transicio": null,
			"objecte3D": {
				"URL": "Models",
				"versio": "1",
				"asset": "txt1.j3o"
			}
		}, {
			"id": "txt7proximitat",
			"tipussimbol": {
				"nom": "text"
			},
			"subtipus": "text ng\/bl\/vr",
			"textFormat": "#FFFFFF;#2222B2;#B22222",
			"fonsFormat": null,
			"text": "Manacor;11\u00ba;20\u00ba",
			"px": "0.253174",
			"pz": "-0.484375",
			"rotacio": "0",
			"imatgeId": null,
			"cobertura": null,
			"durada": null,
			"transicio": null,
			"objecte3D": {
				"URL": "Models",
				"versio": "1",
				"asset": "txt1.j3o"
			}
		}, {
			"id": "txt7proximitat",
			"tipussimbol": {
				"nom": "text"
			},
			"subtipus": "text ng\/bl\/vr",
			"textFormat": "#FFFFFF;#2222B2;#B22222",
			"fonsFormat": null,
			"text": "Alcúdia;12\u00ba;20\u00ba",
			"px": "0.183838",
			"pz": "-0.697225",
			"rotacio": "0",
			"imatgeId": null,
			"cobertura": null,
			"durada": null,
			"transicio": null,
			"objecte3D": {
				"URL": "Models",
				"versio": "1",
				"asset": "txt1.j3o"
			}
		}, {
			"id": "txt7proximitat",
			"tipussimbol": {
				"nom": "text"
			},
			"subtipus": "text ng\/bl\/vr",
			"textFormat": "#FFFFFF;#2222B2;#B22222",
			"fonsFormat": null,
			"text": "Palma;14\u00ba;18\u00ba",
			"px": "-0.100423",
			"pz": "-0.508057",
			"rotacio": "0",
			"imatgeId": null,
			"cobertura": null,
			"durada": null,
			"transicio": null,
			"objecte3D": {
				"URL": "Models",
				"versio": "1",
				"asset": "txt1.j3o"
			}
		}, {
			"id": "txt7proximitat",
			"tipussimbol": {
				"nom": "text"
			},
			"subtipus": "text ng\/bl\/vr",
			"textFormat": "#FFFFFF;#2222B2;#B22222",
			"fonsFormat": null,
			"text": "St. Francesc;14\u00ba;20\u00ba",
			"px": "-0.846029",
			"pz": "0.104167",
			"rotacio": "0",
			"imatgeId": null,
			"cobertura": null,
			"durada": null,
			"transicio": null,
			"objecte3D": {
				"URL": "Models",
				"versio": "1",
				"asset": "txt1.j3o"
			}
		}, {
			"id": "txt7proximitat",
			"tipussimbol": {
				"nom": "text"
			},
			"subtipus": "text ng\/bl\/vr",
			"textFormat": "#FFFFFF;#2222B2;#B22222",
			"fonsFormat": null,
			"text": "Eivissa;14\u00ba;20\u00ba",
			"px": "-0.84436",
			"pz": "0.00520833",
			"rotacio": "0",
			"imatgeId": null,
			"cobertura": null,
			"durada": null,
			"transicio": null,
			"objecte3D": {
				"URL": "Models",
				"versio": "1",
				"asset": "txt1.j3o"
			}
		}, {
			"id": "txt7proximitat",
			"tipussimbol": {
				"nom": "text"
			},
			"subtipus": "text ng\/bl\/vr",
			"textFormat": "#FFFFFF;#2222B2;#B22222",
			"fonsFormat": null,
			"text": "St. Antoni;14\u00ba;19\u00ba",
			"px": "-1.00728",
			"pz": "-0.0823568",
			"rotacio": "0",
			"imatgeId": null,
			"cobertura": null,
			"durada": null,
			"transicio": null,
			"objecte3D": {
				"URL": "Models",
				"versio": "1",
				"asset": "txt1.j3o"
			}
		}, {
			"id": "txt7proximitat",
			"tipussimbol": {
				"nom": "text"
			},
			"subtipus": "text ng\/bl\/vr",
			"textFormat": "#FFFFFF;#2222B2;#B22222",
			"fonsFormat": null,
			"text": "St. Joan;14\u00ba;19\u00ba",
			"px": "-0.815715",
			"pz": "-0.192708",
			"rotacio": "0",
			"imatgeId": null,
			"cobertura": null,
			"durada": null,
			"transicio": null,
			"objecte3D": {
				"URL": "Models",
				"versio": "1",
				"asset": "txt1.j3o"
			}
		}, {
			"id": "rut26",
			"tipussimbol": {
				"nom": "ruta"
			},
			"subtipus": "r_balears",
			"textFormat": "",
			"fonsFormat": null,
			"text": "",
			"px": "0",
			"pz": "0",
			"rotacio": "0",
			"imatgeId": null,
			"cobertura": null,
			"durada": null,
			"transicio": null,
			"objecte3D": {
				"URL": "Models",
				"versio": "2",
				"asset": "rut26"
			}
		}, {
			"id": "rut25",
			"tipussimbol": {
				"nom": "ruta"
			},
			"subtipus": "r_balears",
			"textFormat": "",
			"fonsFormat": null,
			"text": "",
			"px": "0",
			"pz": "0",
			"rotacio": "0",
			"imatgeId": null,
			"cobertura": null,
			"durada": null,
			"transicio": null,
			"objecte3D": {
				"URL": "Models",
				"versio": "2",
				"asset": "rut25"
			}
		}, {
			"id": "rut24",
			"tipussimbol": {
				"nom": "ruta"
			},
			"subtipus": "r_balears",
			"textFormat": "",
			"fonsFormat": null,
			"text": "",
			"px": "0",
			"pz": "0",
			"rotacio": "0",
			"imatgeId": null,
			"cobertura": null,
			"durada": null,
			"transicio": null,
			"objecte3D": {
				"URL": "Models",
				"versio": "2",
				"asset": "rut24"
			}
		}, {
			"id": "vnt2",
			"tipussimbol": {
				"nom": "vent"
			},
			"subtipus": "vent f2",
			"textFormat": "#3300CC",
			"fonsFormat": null,
			"text": "",
			"px": "0.368896",
			"pz": "-0.475016",
			"rotacio": "310",
			"imatgeId": null,
			"cobertura": null,
			"durada": null,
			"transicio": null,
			"objecte3D": {
				"URL": "Models",
				"versio": "1",
				"asset": "vnt2.j3o"
			}
		}, {
			"id": "vnt2",
			"tipussimbol": {
				"nom": "vent"
			},
			"subtipus": "vent f2",
			"textFormat": "#3300CC",
			"fonsFormat": null,
			"text": "",
			"px": "-1.02851",
			"pz": "0.158621",
			"rotacio": "325",
			"imatgeId": null,
			"cobertura": null,
			"durada": null,
			"transicio": null,
			"objecte3D": {
				"URL": "Models",
				"versio": "1",
				"asset": "vnt2.j3o"
			}
		}, {
			"id": "vnt2",
			"tipussimbol": {
				"nom": "vent"
			},
			"subtipus": "vent f2",
			"textFormat": "#3300CC",
			"fonsFormat": null,
			"text": "",
			"px": "-0.119954",
			"pz": "-0.358643",
			"rotacio": "320",
			"imatgeId": null,
			"cobertura": null,
			"durada": null,
			"transicio": null,
			"objecte3D": {
				"URL": "Models",
				"versio": "1",
				"asset": "vnt2.j3o"
			}
		}, {
			"id": "bas16",
			"tipussimbol": {
				"nom": "basic"
			},
			"subtipus": "núvol gris ",
			"textFormat": "",
			"fonsFormat": null,
			"text": "",
			"px": "0.101562",
			"pz": "-0.765625",
			"rotacio": "0",
			"imatgeId": null,
			"cobertura": null,
			"durada": null,
			"transicio": null,
			"objecte3D": {
				"URL": "Models",
				"versio": "1",
				"asset": "bas16.j3o"
			}
		}, {
			"id": "vnt2",
			"tipussimbol": {
				"nom": "vent"
			},
			"subtipus": "vent f2",
			"textFormat": "#3300CC",
			"fonsFormat": null,
			"text": "",
			"px": "-0.697917",
			"pz": "-0.200521",
			"rotacio": "340",
			"imatgeId": null,
			"cobertura": null,
			"durada": null,
			"transicio": null,
			"objecte3D": {
				"URL": "Models",
				"versio": "1",
				"asset": "vnt2.j3o"
			}
		}, {
			"id": "vnt2",
			"tipussimbol": {
				"nom": "vent"
			},
			"subtipus": "vent f2",
			"textFormat": "#3300CC",
			"fonsFormat": null,
			"text": "",
			"px": "-0.705729",
			"pz": "0.00520833",
			"rotacio": "325",
			"imatgeId": null,
			"cobertura": null,
			"durada": null,
			"transicio": null,
			"objecte3D": {
				"URL": "Models",
				"versio": "1",
				"asset": "vnt2.j3o"
			}
		}, {
			"id": "vnt2",
			"tipussimbol": {
				"nom": "vent"
			},
			"subtipus": "vent f2",
			"textFormat": "#3300CC",
			"fonsFormat": null,
			"text": "",
			"px": "-1.14439",
			"pz": "-0.154445",
			"rotacio": "330",
			"imatgeId": null,
			"cobertura": null,
			"durada": null,
			"transicio": null,
			"objecte3D": {
				"URL": "Models",
				"versio": "1",
				"asset": "vnt2.j3o"
			}
		}, {
			"id": "mr4",
			"tipussimbol": {
				"nom": "mar"
			},
			"subtipus": "mar f3",
			"textFormat": "-text-",
			"fonsFormat": null,
			"text": "",
			"px": "-0.674479",
			"pz": "-0.0963542",
			"rotacio": "0",
			"imatgeId": null,
			"cobertura": null,
			"durada": null,
			"transicio": null,
			"objecte3D": {
				"URL": "Models",
				"versio": "1",
				"asset": "mr4.j3o"
			}
		}, {
			"id": "mr4",
			"tipussimbol": {
				"nom": "mar"
			},
			"subtipus": "mar f3",
			"textFormat": "-text-",
			"fonsFormat": null,
			"text": "",
			"px": "-1.07552",
			"pz": "0.0833333",
			"rotacio": "0",
			"imatgeId": null,
			"cobertura": null,
			"durada": null,
			"transicio": null,
			"objecte3D": {
				"URL": "Models",
				"versio": "1",
				"asset": "mr4.j3o"
			}
		}, {
			"id": "mr4",
			"tipussimbol": {
				"nom": "mar"
			},
			"subtipus": "mar f3",
			"textFormat": "-text-",
			"fonsFormat": null,
			"text": "",
			"px": "-0.898438",
			"pz": "0.231771",
			"rotacio": "0",
			"imatgeId": null,
			"cobertura": null,
			"durada": null,
			"transicio": null,
			"objecte3D": {
				"URL": "Models",
				"versio": "1",
				"asset": "mr4.j3o"
			}
		}, {
			"id": "mr4",
			"tipussimbol": {
				"nom": "mar"
			},
			"subtipus": "mar f3",
			"textFormat": "-text-",
			"fonsFormat": null,
			"text": "",
			"px": "0.804281",
			"pz": "-0.690145",
			"rotacio": "0",
			"imatgeId": null,
			"cobertura": null,
			"durada": null,
			"transicio": null,
			"objecte3D": {
				"URL": "Models",
				"versio": "1",
				"asset": "mr4.j3o"
			}
		}, {
			"id": "mr4",
			"tipussimbol": {
				"nom": "mar"
			},
			"subtipus": "mar f3",
			"textFormat": "-text-",
			"fonsFormat": null,
			"text": "",
			"px": "0.62146",
			"pz": "-0.778646",
			"rotacio": "0",
			"imatgeId": null,
			"cobertura": null,
			"durada": null,
			"transicio": null,
			"objecte3D": {
				"URL": "Models",
				"versio": "1",
				"asset": "mr4.j3o"
			}
		}, {
			"id": "mr4",
			"tipussimbol": {
				"nom": "mar"
			},
			"subtipus": "mar f3",
			"textFormat": "-text-",
			"fonsFormat": null,
			"text": "",
			"px": "0.330729",
			"pz": "-0.317708",
			"rotacio": "0",
			"imatgeId": null,
			"cobertura": null,
			"durada": null,
			"transicio": null,
			"objecte3D": {
				"URL": "Models",
				"versio": "1",
				"asset": "mr4.j3o"
			}
		}, {
			"id": "mr4",
			"tipussimbol": {
				"nom": "mar"
			},
			"subtipus": "mar f3",
			"textFormat": "-text-",
			"fonsFormat": null,
			"text": "",
			"px": "0.0338542",
			"pz": "-0.299479",
			"rotacio": "0",
			"imatgeId": null,
			"cobertura": null,
			"durada": null,
			"transicio": null,
			"objecte3D": {
				"URL": "Models",
				"versio": "1",
				"asset": "mr4.j3o"
			}
		}, {
			"id": "mr4",
			"tipussimbol": {
				"nom": "mar"
			},
			"subtipus": "mar f3",
			"textFormat": "-text-",
			"fonsFormat": null,
			"text": "",
			"px": "-0.289062",
			"pz": "-0.442708",
			"rotacio": "0",
			"imatgeId": null,
			"cobertura": null,
			"durada": null,
			"transicio": null,
			"objecte3D": {
				"URL": "Models",
				"versio": "1",
				"asset": "mr4.j3o"
			}
		}, {
			"id": "vnt2",
			"tipussimbol": {
				"nom": "vent"
			},
			"subtipus": "vent f2",
			"textFormat": "#3300CC",
			"fonsFormat": null,
			"text": "",
			"px": "0.716146",
			"pz": "-0.736979",
			"rotacio": "320",
			"imatgeId": null,
			"cobertura": null,
			"durada": null,
			"transicio": null,
			"objecte3D": {
				"URL": "Models",
				"versio": "1",
				"asset": "vnt2.j3o"
			}
		}, {
			"id": "vnt2",
			"tipussimbol": {
				"nom": "vent"
			},
			"subtipus": "vent f2",
			"textFormat": "#3300CC",
			"fonsFormat": null,
			"text": "",
			"px": "-0.179688",
			"pz": "-0.723958",
			"rotacio": "320",
			"imatgeId": null,
			"cobertura": null,
			"durada": null,
			"transicio": null,
			"objecte3D": {
				"URL": "Models",
				"versio": "1",
				"asset": "vnt2.j3o"
			}
		}, {
			"id": "vnt2",
			"tipussimbol": {
				"nom": "vent"
			},
			"subtipus": "vent f2",
			"textFormat": "#3300CC",
			"fonsFormat": null,
			"text": "",
			"px": "0.138447",
			"pz": "-0.239401",
			"rotacio": "315",
			"imatgeId": null,
			"cobertura": null,
			"durada": null,
			"transicio": null,
			"objecte3D": {
				"URL": "Models",
				"versio": "1",
				"asset": "vnt2.j3o"
			}
		}, {
			"id": "mr4",
			"tipussimbol": {
				"nom": "mar"
			},
			"subtipus": "mar f3",
			"textFormat": "-text-",
			"fonsFormat": null,
			"text": "",
			"px": "-0.6875",
			"pz": "0.109375",
			"rotacio": "0",
			"imatgeId": null,
			"cobertura": null,
			"durada": null,
			"transicio": null,
			"objecte3D": {
				"URL": "Models",
				"versio": "1",
				"asset": "mr4.j3o"
			}
		}, {
			"id": "vnt2",
			"tipussimbol": {
				"nom": "vent"
			},
			"subtipus": "vent f2",
			"textFormat": "#3300CC",
			"fonsFormat": null,
			"text": "",
			"px": "0.130208",
			"pz": "-0.893229",
			"rotacio": "320",
			"imatgeId": null,
			"cobertura": null,
			"durada": null,
			"transicio": null,
			"objecte3D": {
				"URL": "Models",
				"versio": "1",
				"asset": "vnt2.j3o"
			}
		}, {
			"id": "bastxt4",
			"tipussimbol": {
				"nom": "basicText"
			},
			"subtipus": "temp calor",
			"textFormat": "#CC0033",
			"fonsFormat": null,
			"text": "",
			"px": "0.4764",
			"pz": "-0.96875",
			"rotacio": "0",
			"imatgeId": null,
			"cobertura": null,
			"durada": null,
			"transicio": null,
			"objecte3D": {
				"URL": "Models",
				"versio": "1",
				"asset": "bastxt4.j3o"
			}
		}, {
			"id": "vnt2",
			"tipussimbol": {
				"nom": "vent"
			},
			"subtipus": "vent f2",
			"textFormat": "#3300CC",
			"fonsFormat": null,
			"text": "",
			"px": "0.689534",
			"pz": "-0.981771",
			"rotacio": "330",
			"imatgeId": null,
			"cobertura": null,
			"durada": null,
			"transicio": null,
			"objecte3D": {
				"URL": "Models",
				"versio": "1",
				"asset": "vnt2.j3o"
			}
		}, {
			"id": "vnt2",
			"tipussimbol": {
				"nom": "vent"
			},
			"subtipus": "vent f2",
			"textFormat": "#3300CC",
			"fonsFormat": null,
			"text": "",
			"px": "0.979167",
			"pz": "-0.882812",
			"rotacio": "335",
			"imatgeId": null,
			"cobertura": null,
			"durada": null,
			"transicio": null,
			"objecte3D": {
				"URL": "Models",
				"versio": "1",
				"asset": "vnt2.j3o"
			}
		}, {
			"id": "vnt2",
			"tipussimbol": {
				"nom": "vent"
			},
			"subtipus": "vent f2",
			"textFormat": "#3300CC",
			"fonsFormat": null,
			"text": "",
			"px": "0.267319",
			"pz": "-0.811579",
			"rotacio": "325",
			"imatgeId": null,
			"cobertura": null,
			"durada": null,
			"transicio": null,
			"objecte3D": {
				"URL": "Models",
				"versio": "1",
				"asset": "vnt2.j3o"
			}
		}, {
			"id": "bas3",
			"tipussimbol": {
				"nom": "basic"
			},
			"subtipus": "núvol blanc",
			"textFormat": "",
			"fonsFormat": null,
			"text": "",
			"px": "0.0885417",
			"pz": "-0.768229",
			"rotacio": "0",
			"imatgeId": null,
			"cobertura": null,
			"durada": null,
			"transicio": null,
			"objecte3D": {
				"URL": "Models",
				"versio": "1",
				"asset": "bas3.j3o"
			}
		}, {
			"id": "bas3",
			"tipussimbol": {
				"nom": "basic"
			},
			"subtipus": "núvol blanc",
			"textFormat": "",
			"fonsFormat": null,
			"text": "",
			"px": "-0.0625",
			"pz": "-0.679688",
			"rotacio": "0",
			"imatgeId": null,
			"cobertura": null,
			"durada": null,
			"transicio": null,
			"objecte3D": {
				"URL": "Models",
				"versio": "1",
				"asset": "bas3.j3o"
			}
		}, {
			"id": "bas14",
			"tipussimbol": {
				"nom": "basic"
			},
			"subtipus": "sol núvol alt",
			"textFormat": "",
			"fonsFormat": null,
			"text": "",
			"px": "0.166667",
			"pz": "-0.359375",
			"rotacio": "0",
			"imatgeId": null,
			"cobertura": null,
			"durada": null,
			"transicio": null,
			"objecte3D": {
				"URL": "Models",
				"versio": "1",
				"asset": "bas14.j3o"
			}
		}, {
			"id": "bas14",
			"tipussimbol": {
				"nom": "basic"
			},
			"subtipus": "sol núvol alt",
			"textFormat": "",
			"fonsFormat": null,
			"text": "",
			"px": "0.869792",
			"pz": "-0.731771",
			"rotacio": "0",
			"imatgeId": null,
			"cobertura": null,
			"durada": null,
			"transicio": null,
			"objecte3D": {
				"URL": "Models",
				"versio": "1",
				"asset": "bas14.j3o"
			}
		}, {
			"id": "bas3",
			"tipussimbol": {
				"nom": "basic"
			},
			"subtipus": "núvol blanc",
			"textFormat": "",
			"fonsFormat": null,
			"text": "",
			"px": "0.0286458",
			"pz": "-0.427083",
			"rotacio": "0",
			"imatgeId": null,
			"cobertura": null,
			"durada": null,
			"transicio": null,
			"objecte3D": {
				"URL": "Models",
				"versio": "1",
				"asset": "bas3.j3o"
			}
		}, {
			"id": "bas3",
			"tipussimbol": {
				"nom": "basic"
			},
			"subtipus": "núvol blanc",
			"textFormat": "",
			"fonsFormat": null,
			"text": "",
			"px": "-0.857788",
			"pz": "-0.0416667",
			"rotacio": "0",
			"imatgeId": null,
			"cobertura": null,
			"durada": null,
			"transicio": null,
			"objecte3D": {
				"URL": "Models",
				"versio": "1",
				"asset": "bas3.j3o"
			}
		}, {
			"id": "bas3",
			"tipussimbol": {
				"nom": "basic"
			},
			"subtipus": "núvol blanc",
			"textFormat": "",
			"fonsFormat": null,
			"text": "",
			"px": "-0.84729",
			"pz": "0.177083",
			"rotacio": "0",
			"imatgeId": null,
			"cobertura": null,
			"durada": null,
			"transicio": null,
			"objecte3D": {
				"URL": "Models",
				"versio": "1",
				"asset": "bas3.j3o"
			}
		}, {
			"id": "bastxt2",
			"tipussimbol": {
				"nom": "basic"
			},
			"subtipus": "pluja",
			"textFormat": "#8888FF",
			"fonsFormat": null,
			"text": "",
			"px": "0.0703125",
			"pz": "-0.776042",
			"rotacio": "0",
			"imatgeId": null,
			"cobertura": null,
			"durada": null,
			"transicio": null,
			"objecte3D": {
				"URL": "Models",
				"versio": "1",
				"asset": "bastxt2.j3o"
			}
		}, {
			"id": "mr4",
			"tipussimbol": {
				"nom": "mar"
			},
			"subtipus": "mar f3",
			"textFormat": "-text-",
			"fonsFormat": null,
			"text": "",
			"px": "-0.981771",
			"pz": "-0.166667",
			"rotacio": "0",
			"imatgeId": null,
			"cobertura": null,
			"durada": null,
			"transicio": null,
			"objecte3D": {
				"URL": "Models",
				"versio": "1",
				"asset": "mr4.j3o"
			}
		}, {
			"id": "mr4",
			"tipussimbol": {
				"nom": "mar"
			},
			"subtipus": "mar f3",
			"textFormat": "-text-",
			"fonsFormat": null,
			"text": "",
			"px": "-0.252604",
			"pz": "-0.648438",
			"rotacio": "0",
			"imatgeId": null,
			"cobertura": null,
			"durada": null,
			"transicio": null,
			"objecte3D": {
				"URL": "Models",
				"versio": "1",
				"asset": "mr4.j3o"
			}
		}, {
			"id": "mr4",
			"tipussimbol": {
				"nom": "mar"
			},
			"subtipus": "mar f3",
			"textFormat": "-text-",
			"fonsFormat": null,
			"text": "",
			"px": "-0.0494792",
			"pz": "-0.833333",
			"rotacio": "0",
			"imatgeId": null,
			"cobertura": null,
			"durada": null,
			"transicio": null,
			"objecte3D": {
				"URL": "Models",
				"versio": "1",
				"asset": "mr4.j3o"
			}
		}, {
			"id": "mr4",
			"tipussimbol": {
				"nom": "mar"
			},
			"subtipus": "mar f3",
			"textFormat": "-text-",
			"fonsFormat": null,
			"text": "",
			"px": "0.34375",
			"pz": "-0.734375",
			"rotacio": "0",
			"imatgeId": null,
			"cobertura": null,
			"durada": null,
			"transicio": null,
			"objecte3D": {
				"URL": "Models",
				"versio": "1",
				"asset": "mr4.j3o"
			}
		}, {
			"id": "mr4",
			"tipussimbol": {
				"nom": "mar"
			},
			"subtipus": "mar f3",
			"textFormat": "-text-",
			"fonsFormat": null,
			"text": "",
			"px": "0.458333",
			"pz": "-0.552083",
			"rotacio": "0",
			"imatgeId": null,
			"cobertura": null,
			"durada": null,
			"transicio": null,
			"objecte3D": {
				"URL": "Models",
				"versio": "1",
				"asset": "mr4.j3o"
			}
		}, {
			"id": "mr4",
			"tipussimbol": {
				"nom": "mar"
			},
			"subtipus": "mar f3",
			"textFormat": "-text-",
			"fonsFormat": null,
			"text": "",
			"px": "0.828125",
			"pz": "-0.960938",
			"rotacio": "0",
			"imatgeId": null,
			"cobertura": null,
			"durada": null,
			"transicio": null,
			"objecte3D": {
				"URL": "Models",
				"versio": "1",
				"asset": "mr4.j3o"
			}
		}, {
			"id": "bastxt4",
			"tipussimbol": {
				"nom": "basicText"
			},
			"subtipus": "temp calor",
			"textFormat": "#CC0033",
			"fonsFormat": null,
			"text": "",
			"px": "-0.3662",
			"pz": "-0.65454",
			"rotacio": "0",
			"imatgeId": null,
			"cobertura": null,
			"durada": null,
			"transicio": null,
			"objecte3D": {
				"URL": "Models",
				"versio": "1",
				"asset": "bastxt4.j3o"
			}
		}, {
			"id": "bastxt4",
			"tipussimbol": {
				"nom": "basicText"
			},
			"subtipus": "temp calor",
			"textFormat": "#CC0033",
			"fonsFormat": null,
			"text": "",
			"px": "-0.53026",
			"pz": "-0.148438",
			"rotacio": "0",
			"imatgeId": null,
			"cobertura": null,
			"durada": null,
			"transicio": null,
			"objecte3D": {
				"URL": "Models",
				"versio": "1",
				"asset": "bastxt4.j3o"
			}
		}, {
			"id": "bas10",
			"tipussimbol": {
				"nom": "basic"
			},
			"subtipus": "sol núvol blanc",
			"textFormat": "",
			"fonsFormat": null,
			"text": "",
			"px": "0.333333",
			"pz": "-0.635417",
			"rotacio": "0",
			"imatgeId": null,
			"cobertura": null,
			"durada": null,
			"transicio": null,
			"objecte3D": {
				"URL": "Models",
				"versio": "1",
				"asset": "bas10.j3o"
			}
		}, {
			"id": "bas10",
			"tipussimbol": {
				"nom": "basic"
			},
			"subtipus": "sol núvol blanc",
			"textFormat": "",
			"fonsFormat": null,
			"text": "",
			"px": "-0.794271",
			"pz": "-0.0885417",
			"rotacio": "0",
			"imatgeId": null,
			"cobertura": null,
			"durada": null,
			"transicio": null,
			"objecte3D": {
				"URL": "Models",
				"versio": "1",
				"asset": "bas10.j3o"
			}
		}, {
			"id": "bas3",
			"tipussimbol": {
				"nom": "basic"
			},
			"subtipus": "núvol blanc",
			"textFormat": "",
			"fonsFormat": null,
			"text": "",
			"px": "0.666667",
			"pz": "-0.867188",
			"rotacio": "0",
			"imatgeId": null,
			"cobertura": null,
			"durada": null,
			"transicio": null,
			"objecte3D": {
				"URL": "Models",
				"versio": "1",
				"asset": "bas3.j3o"
			}
		}, {
			"id": "bas10",
			"tipussimbol": {
				"nom": "basic"
			},
			"subtipus": "sol núvol blanc",
			"textFormat": "",
			"fonsFormat": null,
			"text": "",
			"px": "0.763021",
			"pz": "-0.799479",
			"rotacio": "0",
			"imatgeId": null,
			"cobertura": null,
			"durada": null,
			"transicio": null,
			"objecte3D": {
				"URL": "Models",
				"versio": "1",
				"asset": "bas10.j3o"
			}
		}, {
			"id": "bas10",
			"tipussimbol": {
				"nom": "basic"
			},
			"subtipus": "sol núvol blanc",
			"textFormat": "",
			"fonsFormat": null,
			"text": "",
			"px": "0.130697",
			"pz": "-0.5625",
			"rotacio": "0",
			"imatgeId": null,
			"cobertura": null,
			"durada": null,
			"transicio": null,
			"objecte3D": {
				"URL": "Models",
				"versio": "1",
				"asset": "bas10.j3o"
			}
		}, {
			"id": "bastxt2",
			"tipussimbol": {
				"nom": "basic"
			},
			"subtipus": "pluja",
			"textFormat": "#8888FF",
			"fonsFormat": null,
			"text": "",
			"px": "-0.796875",
			"pz": "-0.0989583",
			"rotacio": "0",
			"imatgeId": null,
			"cobertura": null,
			"durada": null,
			"transicio": null,
			"objecte3D": {
				"URL": "Models",
				"versio": "1",
				"asset": "bastxt2.j3o"
			}
		}, {
			"id": "bas10",
			"tipussimbol": {
				"nom": "basic"
			},
			"subtipus": "sol núvol blanc",
			"textFormat": "",
			"fonsFormat": null,
			"text": "",
			"px": "-0.981649",
			"pz": "0.00260417",
			"rotacio": "0",
			"imatgeId": null,
			"cobertura": null,
			"durada": null,
			"transicio": null,
			"objecte3D": {
				"URL": "Models",
				"versio": "1",
				"asset": "bas10.j3o"
			}
		}, {
			"id": "bastxt2",
			"tipussimbol": {
				"nom": "basic"
			},
			"subtipus": "pluja",
			"textFormat": "#8888FF",
			"fonsFormat": null,
			"text": "",
			"px": "-0.229167",
			"pz": "-0.559896",
			"rotacio": "0",
			"imatgeId": null,
			"cobertura": null,
			"durada": null,
			"transicio": null,
			"objecte3D": {
				"URL": "Models",
				"versio": "1",
				"asset": "bastxt2.j3o"
			}
		}, {
			"id": "bas10",
			"tipussimbol": {
				"nom": "basic"
			},
			"subtipus": "sol núvol blanc",
			"textFormat": "",
			"fonsFormat": null,
			"text": "",
			"px": "-0.226562",
			"pz": "-0.565104",
			"rotacio": "0",
			"imatgeId": null,
			"cobertura": null,
			"durada": null,
			"transicio": null,
			"objecte3D": {
				"URL": "Models",
				"versio": "1",
				"asset": "bas10.j3o"
			}
		}, {
			"id": "bastxt2",
			"tipussimbol": {
				"nom": "basic"
			},
			"subtipus": "pluja",
			"textFormat": "#8888FF",
			"fonsFormat": null,
			"text": "",
			"px": "0.130208",
			"pz": "-0.583333",
			"rotacio": "0",
			"imatgeId": null,
			"cobertura": null,
			"durada": null,
			"transicio": null,
			"objecte3D": {
				"URL": "Models",
				"versio": "1",
				"asset": "bastxt2.j3o"
			}
		}]
	}, {
		"id": "346037",
		"nom": "",
		"ordre": "4",
		"estat": "Actiu",
		"transicio": "0",
		"tnom": "tall",
		"tduracio": "0",
		"simbols": [{
			"id": "map4",
			"tipussimbol": {
				"nom": "mapa"
			},
			"subtipus": "Balears",
			"textFormat": "",
			"fonsFormat": null,
			"text": "",
			"px": "0",
			"pz": "0",
			"rotacio": "0",
			"imatgeId": null,
			"cobertura": null,
			"durada": null,
			"transicio": null,
			"objecte3D": {
				"URL": "Models",
				"versio": "2",
				"asset": "mapaBalears.j3o"
			}
		}, {
			"id": "chy1",
			"tipussimbol": {
				"nom": "textChyron"
			},
			"subtipus": "text normal",
			"textFormat": "#000000",
			"fonsFormat": null,
			"text": "DIMECRES 31",
			"px": "-0.788208",
			"pz": "-0.855143",
			"rotacio": "0",
			"imatgeId": null,
			"cobertura": null,
			"durada": null,
			"transicio": null,
			"objecte3D": {
				"URL": "Models",
				"versio": "0",
				"asset": "chy1.j3o"
			}
		}, {
			"id": "vnt2",
			"tipussimbol": {
				"nom": "vent"
			},
			"subtipus": "vent f2",
			"textFormat": "#3300CC",
			"fonsFormat": null,
			"text": "",
			"px": "0.368896",
			"pz": "-0.475016",
			"rotacio": "300",
			"imatgeId": null,
			"cobertura": null,
			"durada": null,
			"transicio": null,
			"objecte3D": {
				"URL": "Models",
				"versio": "1",
				"asset": "vnt2.j3o"
			}
		}, {
			"id": "vnt2",
			"tipussimbol": {
				"nom": "vent"
			},
			"subtipus": "vent f2",
			"textFormat": "#3300CC",
			"fonsFormat": null,
			"text": "",
			"px": "-0.119954",
			"pz": "-0.358643",
			"rotacio": "275",
			"imatgeId": null,
			"cobertura": null,
			"durada": null,
			"transicio": null,
			"objecte3D": {
				"URL": "Models",
				"versio": "1",
				"asset": "vnt2.j3o"
			}
		}, {
			"id": "bas16",
			"tipussimbol": {
				"nom": "basic"
			},
			"subtipus": "núvol gris ",
			"textFormat": "",
			"fonsFormat": null,
			"text": "",
			"px": "0.101562",
			"pz": "-0.765625",
			"rotacio": "0",
			"imatgeId": null,
			"cobertura": null,
			"durada": null,
			"transicio": null,
			"objecte3D": {
				"URL": "Models",
				"versio": "1",
				"asset": "bas16.j3o"
			}
		}, {
			"id": "vnt2",
			"tipussimbol": {
				"nom": "vent"
			},
			"subtipus": "vent f2",
			"textFormat": "#3300CC",
			"fonsFormat": null,
			"text": "",
			"px": "-0.697917",
			"pz": "-0.200521",
			"rotacio": "295",
			"imatgeId": null,
			"cobertura": null,
			"durada": null,
			"transicio": null,
			"objecte3D": {
				"URL": "Models",
				"versio": "1",
				"asset": "vnt2.j3o"
			}
		}, {
			"id": "vnt2",
			"tipussimbol": {
				"nom": "vent"
			},
			"subtipus": "vent f2",
			"textFormat": "#3300CC",
			"fonsFormat": null,
			"text": "",
			"px": "-0.705729",
			"pz": "0.00520833",
			"rotacio": "305",
			"imatgeId": null,
			"cobertura": null,
			"durada": null,
			"transicio": null,
			"objecte3D": {
				"URL": "Models",
				"versio": "1",
				"asset": "vnt2.j3o"
			}
		}, {
			"id": "vnt2",
			"tipussimbol": {
				"nom": "vent"
			},
			"subtipus": "vent f2",
			"textFormat": "#3300CC",
			"fonsFormat": null,
			"text": "",
			"px": "-1.12474",
			"pz": "-0.113592",
			"rotacio": "295",
			"imatgeId": null,
			"cobertura": null,
			"durada": null,
			"transicio": null,
			"objecte3D": {
				"URL": "Models",
				"versio": "1",
				"asset": "vnt2.j3o"
			}
		}, {
			"id": "mr4",
			"tipussimbol": {
				"nom": "mar"
			},
			"subtipus": "mar f3",
			"textFormat": "-text-",
			"fonsFormat": null,
			"text": "",
			"px": "-0.674479",
			"pz": "-0.0963542",
			"rotacio": "0",
			"imatgeId": null,
			"cobertura": null,
			"durada": null,
			"transicio": null,
			"objecte3D": {
				"URL": "Models",
				"versio": "1",
				"asset": "mr4.j3o"
			}
		}, {
			"id": "mr4",
			"tipussimbol": {
				"nom": "mar"
			},
			"subtipus": "mar f3",
			"textFormat": "-text-",
			"fonsFormat": null,
			"text": "",
			"px": "-1.07552",
			"pz": "0.0833333",
			"rotacio": "0",
			"imatgeId": null,
			"cobertura": null,
			"durada": null,
			"transicio": null,
			"objecte3D": {
				"URL": "Models",
				"versio": "1",
				"asset": "mr4.j3o"
			}
		}, {
			"id": "mr4",
			"tipussimbol": {
				"nom": "mar"
			},
			"subtipus": "mar f3",
			"textFormat": "-text-",
			"fonsFormat": null,
			"text": "",
			"px": "-0.289062",
			"pz": "-0.442708",
			"rotacio": "0",
			"imatgeId": null,
			"cobertura": null,
			"durada": null,
			"transicio": null,
			"objecte3D": {
				"URL": "Models",
				"versio": "1",
				"asset": "mr4.j3o"
			}
		}, {
			"id": "vnt2",
			"tipussimbol": {
				"nom": "vent"
			},
			"subtipus": "vent f2",
			"textFormat": "#3300CC",
			"fonsFormat": null,
			"text": "",
			"px": "0.130208",
			"pz": "-0.893229",
			"rotacio": "285",
			"imatgeId": null,
			"cobertura": null,
			"durada": null,
			"transicio": null,
			"objecte3D": {
				"URL": "Models",
				"versio": "1",
				"asset": "vnt2.j3o"
			}
		}, {
			"id": "vnt2",
			"tipussimbol": {
				"nom": "vent"
			},
			"subtipus": "vent f2",
			"textFormat": "#3300CC",
			"fonsFormat": null,
			"text": "",
			"px": "0.689534",
			"pz": "-0.981771",
			"rotacio": "270",
			"imatgeId": null,
			"cobertura": null,
			"durada": null,
			"transicio": null,
			"objecte3D": {
				"URL": "Models",
				"versio": "1",
				"asset": "vnt2.j3o"
			}
		}, {
			"id": "vnt2",
			"tipussimbol": {
				"nom": "vent"
			},
			"subtipus": "vent f2",
			"textFormat": "#3300CC",
			"fonsFormat": null,
			"text": "",
			"px": "0.979167",
			"pz": "-0.882812",
			"rotacio": "280",
			"imatgeId": null,
			"cobertura": null,
			"durada": null,
			"transicio": null,
			"objecte3D": {
				"URL": "Models",
				"versio": "1",
				"asset": "vnt2.j3o"
			}
		}, {
			"id": "bas3",
			"tipussimbol": {
				"nom": "basic"
			},
			"subtipus": "núvol blanc",
			"textFormat": "",
			"fonsFormat": null,
			"text": "",
			"px": "-0.0625",
			"pz": "-0.679688",
			"rotacio": "0",
			"imatgeId": null,
			"cobertura": null,
			"durada": null,
			"transicio": null,
			"objecte3D": {
				"URL": "Models",
				"versio": "1",
				"asset": "bas3.j3o"
			}
		}, {
			"id": "bas3",
			"tipussimbol": {
				"nom": "basic"
			},
			"subtipus": "núvol blanc",
			"textFormat": "",
			"fonsFormat": null,
			"text": "",
			"px": "-0.84729",
			"pz": "0.177083",
			"rotacio": "0",
			"imatgeId": null,
			"cobertura": null,
			"durada": null,
			"transicio": null,
			"objecte3D": {
				"URL": "Models",
				"versio": "1",
				"asset": "bas3.j3o"
			}
		}, {
			"id": "bastxt2",
			"tipussimbol": {
				"nom": "basic"
			},
			"subtipus": "pluja",
			"textFormat": "#8888FF",
			"fonsFormat": null,
			"text": "",
			"px": "0.0913086",
			"pz": "-0.755249",
			"rotacio": "0",
			"imatgeId": null,
			"cobertura": null,
			"durada": null,
			"transicio": null,
			"objecte3D": {
				"URL": "Models",
				"versio": "1",
				"asset": "bastxt2.j3o"
			}
		}, {
			"id": "mr4",
			"tipussimbol": {
				"nom": "mar"
			},
			"subtipus": "mar f3",
			"textFormat": "-text-",
			"fonsFormat": null,
			"text": "",
			"px": "-0.981771",
			"pz": "-0.166667",
			"rotacio": "0",
			"imatgeId": null,
			"cobertura": null,
			"durada": null,
			"transicio": null,
			"objecte3D": {
				"URL": "Models",
				"versio": "1",
				"asset": "mr4.j3o"
			}
		}, {
			"id": "mr4",
			"tipussimbol": {
				"nom": "mar"
			},
			"subtipus": "mar f3",
			"textFormat": "-text-",
			"fonsFormat": null,
			"text": "",
			"px": "-0.252604",
			"pz": "-0.648438",
			"rotacio": "0",
			"imatgeId": null,
			"cobertura": null,
			"durada": null,
			"transicio": null,
			"objecte3D": {
				"URL": "Models",
				"versio": "1",
				"asset": "mr4.j3o"
			}
		}, {
			"id": "mr4",
			"tipussimbol": {
				"nom": "mar"
			},
			"subtipus": "mar f3",
			"textFormat": "-text-",
			"fonsFormat": null,
			"text": "",
			"px": "-0.0494792",
			"pz": "-0.833333",
			"rotacio": "0",
			"imatgeId": null,
			"cobertura": null,
			"durada": null,
			"transicio": null,
			"objecte3D": {
				"URL": "Models",
				"versio": "1",
				"asset": "mr4.j3o"
			}
		}, {
			"id": "mr4",
			"tipussimbol": {
				"nom": "mar"
			},
			"subtipus": "mar f3",
			"textFormat": "-text-",
			"fonsFormat": null,
			"text": "",
			"px": "0.34375",
			"pz": "-0.734375",
			"rotacio": "0",
			"imatgeId": null,
			"cobertura": null,
			"durada": null,
			"transicio": null,
			"objecte3D": {
				"URL": "Models",
				"versio": "1",
				"asset": "mr4.j3o"
			}
		}, {
			"id": "mr4",
			"tipussimbol": {
				"nom": "mar"
			},
			"subtipus": "mar f3",
			"textFormat": "-text-",
			"fonsFormat": null,
			"text": "",
			"px": "0.828125",
			"pz": "-0.960938",
			"rotacio": "0",
			"imatgeId": null,
			"cobertura": null,
			"durada": null,
			"transicio": null,
			"objecte3D": {
				"URL": "Models",
				"versio": "1",
				"asset": "mr4.j3o"
			}
		}, {
			"id": "bas10",
			"tipussimbol": {
				"nom": "basic"
			},
			"subtipus": "sol núvol blanc",
			"textFormat": "",
			"fonsFormat": null,
			"text": "",
			"px": "-0.794271",
			"pz": "-0.0885417",
			"rotacio": "0",
			"imatgeId": null,
			"cobertura": null,
			"durada": null,
			"transicio": null,
			"objecte3D": {
				"URL": "Models",
				"versio": "1",
				"asset": "bas10.j3o"
			}
		}, {
			"id": "bas10",
			"tipussimbol": {
				"nom": "basic"
			},
			"subtipus": "sol núvol blanc",
			"textFormat": "",
			"fonsFormat": null,
			"text": "",
			"px": "0.834798",
			"pz": "-0.809937",
			"rotacio": "0",
			"imatgeId": null,
			"cobertura": null,
			"durada": null,
			"transicio": null,
			"objecte3D": {
				"URL": "Models",
				"versio": "1",
				"asset": "bas10.j3o"
			}
		}, {
			"id": "bas10",
			"tipussimbol": {
				"nom": "basic"
			},
			"subtipus": "sol núvol blanc",
			"textFormat": "",
			"fonsFormat": null,
			"text": "",
			"px": "0.130697",
			"pz": "-0.5625",
			"rotacio": "0",
			"imatgeId": null,
			"cobertura": null,
			"durada": null,
			"transicio": null,
			"objecte3D": {
				"URL": "Models",
				"versio": "1",
				"asset": "bas10.j3o"
			}
		}, {
			"id": "bastxt2",
			"tipussimbol": {
				"nom": "basic"
			},
			"subtipus": "pluja",
			"textFormat": "#8888FF",
			"fonsFormat": null,
			"text": "",
			"px": "-0.796875",
			"pz": "-0.0989583",
			"rotacio": "0",
			"imatgeId": null,
			"cobertura": null,
			"durada": null,
			"transicio": null,
			"objecte3D": {
				"URL": "Models",
				"versio": "1",
				"asset": "bastxt2.j3o"
			}
		}, {
			"id": "bastxt2",
			"tipussimbol": {
				"nom": "basic"
			},
			"subtipus": "pluja",
			"textFormat": "#8888FF",
			"fonsFormat": null,
			"text": "",
			"px": "-0.229167",
			"pz": "-0.559896",
			"rotacio": "0",
			"imatgeId": null,
			"cobertura": null,
			"durada": null,
			"transicio": null,
			"objecte3D": {
				"URL": "Models",
				"versio": "1",
				"asset": "bastxt2.j3o"
			}
		}, {
			"id": "bas10",
			"tipussimbol": {
				"nom": "basic"
			},
			"subtipus": "sol núvol blanc",
			"textFormat": "",
			"fonsFormat": null,
			"text": "",
			"px": "-0.226562",
			"pz": "-0.565104",
			"rotacio": "0",
			"imatgeId": null,
			"cobertura": null,
			"durada": null,
			"transicio": null,
			"objecte3D": {
				"URL": "Models",
				"versio": "1",
				"asset": "bas10.j3o"
			}
		}, {
			"id": "bastxt2",
			"tipussimbol": {
				"nom": "basic"
			},
			"subtipus": "pluja",
			"textFormat": "#8888FF",
			"fonsFormat": null,
			"text": "",
			"px": "0.12793",
			"pz": "-0.559896",
			"rotacio": "0",
			"imatgeId": null,
			"cobertura": null,
			"durada": null,
			"transicio": null,
			"objecte3D": {
				"URL": "Models",
				"versio": "1",
				"asset": "bastxt2.j3o"
			}
		}, {
			"id": "rut23",
			"tipussimbol": {
				"nom": "ruta"
			},
			"subtipus": "r_balears",
			"textFormat": "",
			"fonsFormat": null,
			"text": "",
			"px": "0",
			"pz": "0",
			"rotacio": "0",
			"imatgeId": null,
			"cobertura": null,
			"durada": null,
			"transicio": null,
			"objecte3D": {
				"URL": "Models",
				"versio": "2",
				"asset": "rut23"
			}
		}, {
			"id": "bastxt5",
			"tipussimbol": {
				"nom": "basicText"
			},
			"subtipus": "temp igual",
			"textFormat": "#339900",
			"fonsFormat": null,
			"text": "",
			"px": "-0.778646",
			"pz": "-0.684896",
			"rotacio": "0",
			"imatgeId": null,
			"cobertura": null,
			"durada": null,
			"transicio": null,
			"objecte3D": {
				"URL": "Models",
				"versio": "1",
				"asset": "bastxt5.j3o"
			}
		}, {
			"id": "vnt3",
			"tipussimbol": {
				"nom": "vent"
			},
			"subtipus": "vent f3",
			"textFormat": "#3300CC",
			"fonsFormat": null,
			"text": "",
			"px": "-1.01823",
			"pz": "0.197917",
			"rotacio": "300",
			"imatgeId": null,
			"cobertura": null,
			"durada": null,
			"transicio": null,
			"objecte3D": {
				"URL": "Models",
				"versio": "1",
				"asset": "vnt3.j3o"
			}
		}, {
			"id": "vnt3",
			"tipussimbol": {
				"nom": "vent"
			},
			"subtipus": "vent f3",
			"textFormat": "#3300CC",
			"fonsFormat": null,
			"text": "",
			"px": "-0.197917",
			"pz": "-0.723958",
			"rotacio": "280",
			"imatgeId": null,
			"cobertura": null,
			"durada": null,
			"transicio": null,
			"objecte3D": {
				"URL": "Models",
				"versio": "1",
				"asset": "vnt3.j3o"
			}
		}, {
			"id": "vnt3",
			"tipussimbol": {
				"nom": "vent"
			},
			"subtipus": "vent f3",
			"textFormat": "#3300CC",
			"fonsFormat": null,
			"text": "",
			"px": "0.315877",
			"pz": "-0.789062",
			"rotacio": "275",
			"imatgeId": null,
			"cobertura": null,
			"durada": null,
			"transicio": null,
			"objecte3D": {
				"URL": "Models",
				"versio": "1",
				"asset": "vnt3.j3o"
			}
		}, {
			"id": "vnt3",
			"tipussimbol": {
				"nom": "vent"
			},
			"subtipus": "vent f3",
			"textFormat": "#3300CC",
			"fonsFormat": null,
			"text": "",
			"px": "0.705729",
			"pz": "-0.721354",
			"rotacio": "280",
			"imatgeId": null,
			"cobertura": null,
			"durada": null,
			"transicio": null,
			"objecte3D": {
				"URL": "Models",
				"versio": "1",
				"asset": "vnt3.j3o"
			}
		}, {
			"id": "mr5",
			"tipussimbol": {
				"nom": "mar"
			},
			"subtipus": "mar f4",
			"textFormat": "-text-",
			"fonsFormat": null,
			"text": "",
			"px": "0.828125",
			"pz": "-0.716146",
			"rotacio": "0",
			"imatgeId": null,
			"cobertura": null,
			"durada": null,
			"transicio": null,
			"objecte3D": {
				"URL": "Models",
				"versio": "1",
				"asset": "mr5.j3o"
			}
		}, {
			"id": "mr5",
			"tipussimbol": {
				"nom": "mar"
			},
			"subtipus": "mar f4",
			"textFormat": "-text-",
			"fonsFormat": null,
			"text": "",
			"px": "0.291667",
			"pz": "-0.302083",
			"rotacio": "0",
			"imatgeId": null,
			"cobertura": null,
			"durada": null,
			"transicio": null,
			"objecte3D": {
				"URL": "Models",
				"versio": "1",
				"asset": "mr5.j3o"
			}
		}, {
			"id": "mr5",
			"tipussimbol": {
				"nom": "mar"
			},
			"subtipus": "mar f4",
			"textFormat": "-text-",
			"fonsFormat": null,
			"text": "",
			"px": "-0.00520833",
			"pz": "-0.320312",
			"rotacio": "0",
			"imatgeId": null,
			"cobertura": null,
			"durada": null,
			"transicio": null,
			"objecte3D": {
				"URL": "Models",
				"versio": "1",
				"asset": "mr5.j3o"
			}
		}, {
			"id": "mr5",
			"tipussimbol": {
				"nom": "mar"
			},
			"subtipus": "mar f4",
			"textFormat": "-text-",
			"fonsFormat": null,
			"text": "",
			"px": "-0.757446",
			"pz": "0.223958",
			"rotacio": "0",
			"imatgeId": null,
			"cobertura": null,
			"durada": null,
			"transicio": null,
			"objecte3D": {
				"URL": "Models",
				"versio": "1",
				"asset": "mr5.j3o"
			}
		}, {
			"id": "bas12",
			"tipussimbol": {
				"nom": "basic"
			},
			"subtipus": "sol núvol negre",
			"textFormat": "",
			"fonsFormat": null,
			"text": "",
			"px": "0.65625",
			"pz": "-0.903646",
			"rotacio": "0",
			"imatgeId": null,
			"cobertura": null,
			"durada": null,
			"transicio": null,
			"objecte3D": {
				"URL": "Models",
				"versio": "1",
				"asset": "bas12.j3o"
			}
		}, {
			"id": "bastxt2",
			"tipussimbol": {
				"nom": "basic"
			},
			"subtipus": "pluja",
			"textFormat": "#8888FF",
			"fonsFormat": null,
			"text": "",
			"px": "0.848958",
			"pz": "-0.804688",
			"rotacio": "0",
			"imatgeId": null,
			"cobertura": null,
			"durada": null,
			"transicio": null,
			"objecte3D": {
				"URL": "Models",
				"versio": "1",
				"asset": "bastxt2.j3o"
			}
		}, {
			"id": "bas12",
			"tipussimbol": {
				"nom": "basic"
			},
			"subtipus": "sol núvol negre",
			"textFormat": "",
			"fonsFormat": null,
			"text": "",
			"px": "0.335938",
			"pz": "-0.635417",
			"rotacio": "0",
			"imatgeId": null,
			"cobertura": null,
			"durada": null,
			"transicio": null,
			"objecte3D": {
				"URL": "Models",
				"versio": "1",
				"asset": "bas12.j3o"
			}
		}, {
			"id": "bas12",
			"tipussimbol": {
				"nom": "basic"
			},
			"subtipus": "sol núvol negre",
			"textFormat": "",
			"fonsFormat": null,
			"text": "",
			"px": "-0.924479",
			"pz": "-0.0338542",
			"rotacio": "0",
			"imatgeId": null,
			"cobertura": null,
			"durada": null,
			"transicio": null,
			"objecte3D": {
				"URL": "Models",
				"versio": "1",
				"asset": "bas12.j3o"
			}
		}, {
			"id": "bastxt2",
			"tipussimbol": {
				"nom": "basic"
			},
			"subtipus": "pluja",
			"textFormat": "#8888FF",
			"fonsFormat": null,
			"text": "",
			"px": "0.141032",
			"pz": "-0.408854",
			"rotacio": "0",
			"imatgeId": null,
			"cobertura": null,
			"durada": null,
			"transicio": null,
			"objecte3D": {
				"URL": "Models",
				"versio": "1",
				"asset": "bastxt2.j3o"
			}
		}, {
			"id": "bas12",
			"tipussimbol": {
				"nom": "basic"
			},
			"subtipus": "sol núvol negre",
			"textFormat": "",
			"fonsFormat": null,
			"text": "",
			"px": "0.138021",
			"pz": "-0.411458",
			"rotacio": "0",
			"imatgeId": null,
			"cobertura": null,
			"durada": null,
			"transicio": null,
			"objecte3D": {
				"URL": "Models",
				"versio": "1",
				"asset": "bas12.j3o"
			}
		}]
	}, {
		"id": "346038",
		"nom": "Nou mapa",
		"ordre": "5",
		"estat": "Actiu",
		"transicio": "0",
		"tnom": "tall",
		"tduracio": "0",
		"simbols": [{
			"id": "map3",
			"tipussimbol": {
				"nom": "mapa"
			},
			"subtipus": "Maritim",
			"textFormat": "",
			"fonsFormat": null,
			"text": "",
			"px": "0",
			"pz": "0",
			"rotacio": "0",
			"imatgeId": null,
			"cobertura": null,
			"durada": null,
			"transicio": null,
			"objecte3D": {
				"URL": "Models",
				"versio": "1",
				"asset": "mapa_maritim.j3o"
			}
		}, {
			"id": "rut21",
			"tipussimbol": {
				"nom": "ruta"
			},
			"subtipus": "r_maritim",
			"textFormat": "",
			"fonsFormat": null,
			"text": "",
			"px": "0.0745443",
			"pz": "-0.109375",
			"rotacio": "0",
			"imatgeId": null,
			"cobertura": null,
			"durada": null,
			"transicio": null,
			"objecte3D": {
				"URL": "Models",
				"versio": "1",
				"asset": "rut21"
			}
		}, {
			"id": "chy1",
			"tipussimbol": {
				"nom": "textChyron"
			},
			"subtipus": "text normal",
			"textFormat": "#000000",
			"fonsFormat": null,
			"text": "DEM\u00c0 DEMAT\u00cd",
			"px": "-0.788737",
			"pz": "-0.857707",
			"rotacio": "0",
			"imatgeId": null,
			"cobertura": null,
			"durada": null,
			"transicio": null,
			"objecte3D": {
				"URL": "Models",
				"versio": "0",
				"asset": "chy1.j3o"
			}
		}, {
			"id": "vnt5",
			"tipussimbol": {
				"nom": "vent"
			},
			"subtipus": "vent f5",
			"textFormat": "#3300CC",
			"fonsFormat": null,
			"text": "",
			"px": "0.415384",
			"pz": "-0.372214",
			"rotacio": "315",
			"imatgeId": null,
			"cobertura": null,
			"durada": null,
			"transicio": null,
			"objecte3D": {
				"URL": "Models",
				"versio": "1",
				"asset": "vnt5.j3o"
			}
		}, {
			"id": "vnt5",
			"tipussimbol": {
				"nom": "vent"
			},
			"subtipus": "vent f5",
			"textFormat": "#3300CC",
			"fonsFormat": null,
			"text": "",
			"px": "0.40625",
			"pz": "0.205729",
			"rotacio": "330",
			"imatgeId": null,
			"cobertura": null,
			"durada": null,
			"transicio": null,
			"objecte3D": {
				"URL": "Models",
				"versio": "1",
				"asset": "vnt5.j3o"
			}
		}, {
			"id": "vnt5",
			"tipussimbol": {
				"nom": "vent"
			},
			"subtipus": "vent f5",
			"textFormat": "#3300CC",
			"fonsFormat": null,
			"text": "",
			"px": "0.309896",
			"pz": "0.544271",
			"rotacio": "315",
			"imatgeId": null,
			"cobertura": null,
			"durada": null,
			"transicio": null,
			"objecte3D": {
				"URL": "Models",
				"versio": "1",
				"asset": "vnt5.j3o"
			}
		}, {
			"id": "vnt5",
			"tipussimbol": {
				"nom": "vent"
			},
			"subtipus": "vent f5",
			"textFormat": "#3300CC",
			"fonsFormat": null,
			"text": "",
			"px": "0.0973972",
			"pz": "0.201442",
			"rotacio": "305",
			"imatgeId": null,
			"cobertura": null,
			"durada": null,
			"transicio": null,
			"objecte3D": {
				"URL": "Models",
				"versio": "1",
				"asset": "vnt5.j3o"
			}
		}, {
			"id": "vnt5",
			"tipussimbol": {
				"nom": "vent"
			},
			"subtipus": "vent f5",
			"textFormat": "#3300CC",
			"fonsFormat": null,
			"text": "",
			"px": "-0.130208",
			"pz": "-0.466146",
			"rotacio": "325",
			"imatgeId": null,
			"cobertura": null,
			"durada": null,
			"transicio": null,
			"objecte3D": {
				"URL": "Models",
				"versio": "1",
				"asset": "vnt5.j3o"
			}
		}, {
			"id": "vnt5",
			"tipussimbol": {
				"nom": "vent"
			},
			"subtipus": "vent f5",
			"textFormat": "#3300CC",
			"fonsFormat": null,
			"text": "",
			"px": "-0.211619",
			"pz": "-0.0887346",
			"rotacio": "345",
			"imatgeId": null,
			"cobertura": null,
			"durada": null,
			"transicio": null,
			"objecte3D": {
				"URL": "Models",
				"versio": "1",
				"asset": "vnt5.j3o"
			}
		}, {
			"id": "vnt5",
			"tipussimbol": {
				"nom": "vent"
			},
			"subtipus": "vent f5",
			"textFormat": "#3300CC",
			"fonsFormat": null,
			"text": "",
			"px": "-0.583333",
			"pz": "0.109375",
			"rotacio": "315",
			"imatgeId": null,
			"cobertura": null,
			"durada": null,
			"transicio": null,
			"objecte3D": {
				"URL": "Models",
				"versio": "1",
				"asset": "vnt5.j3o"
			}
		}, {
			"id": "vnt5",
			"tipussimbol": {
				"nom": "vent"
			},
			"subtipus": "vent f5",
			"textFormat": "#3300CC",
			"fonsFormat": null,
			"text": "",
			"px": "-0.653646",
			"pz": "0.515625",
			"rotacio": "335",
			"imatgeId": null,
			"cobertura": null,
			"durada": null,
			"transicio": null,
			"objecte3D": {
				"URL": "Models",
				"versio": "1",
				"asset": "vnt5.j3o"
			}
		}, {
			"id": "vnt5",
			"tipussimbol": {
				"nom": "vent"
			},
			"subtipus": "vent f5",
			"textFormat": "#3300CC",
			"fonsFormat": null,
			"text": "",
			"px": "-0.117188",
			"pz": "0.606771",
			"rotacio": "325",
			"imatgeId": null,
			"cobertura": null,
			"durada": null,
			"transicio": null,
			"objecte3D": {
				"URL": "Models",
				"versio": "1",
				"asset": "vnt5.j3o"
			}
		}, {
			"id": "vnt5",
			"tipussimbol": {
				"nom": "vent"
			},
			"subtipus": "vent f5",
			"textFormat": "#3300CC",
			"fonsFormat": null,
			"text": "",
			"px": "0.325521",
			"pz": "-0.111979",
			"rotacio": "310",
			"imatgeId": null,
			"cobertura": null,
			"durada": null,
			"transicio": null,
			"objecte3D": {
				"URL": "Models",
				"versio": "1",
				"asset": "vnt5.j3o"
			}
		}, {
			"id": "vnt5",
			"tipussimbol": {
				"nom": "vent"
			},
			"subtipus": "vent f5",
			"textFormat": "#3300CC",
			"fonsFormat": null,
			"text": "",
			"px": "-0.0182292",
			"pz": "-0.158854",
			"rotacio": "345",
			"imatgeId": null,
			"cobertura": null,
			"durada": null,
			"transicio": null,
			"objecte3D": {
				"URL": "Models",
				"versio": "1",
				"asset": "vnt5.j3o"
			}
		}, {
			"id": "mr5",
			"tipussimbol": {
				"nom": "mar"
			},
			"subtipus": "mar f4",
			"textFormat": "-text-",
			"fonsFormat": null,
			"text": "",
			"px": "-0.401042",
			"pz": "0.703125",
			"rotacio": "0",
			"imatgeId": null,
			"cobertura": null,
			"durada": null,
			"transicio": null,
			"objecte3D": {
				"URL": "Models",
				"versio": "1",
				"asset": "mr5.j3o"
			}
		}, {
			"id": "txt1",
			"tipussimbol": {
				"nom": "text"
			},
			"subtipus": "text normal",
			"textFormat": "#FFFFFF",
			"fonsFormat": null,
			"text": "4\/5",
			"px": "0.0130208",
			"pz": "-0.0130208",
			"rotacio": "0",
			"imatgeId": null,
			"cobertura": null,
			"durada": null,
			"transicio": null,
			"objecte3D": {
				"URL": "Models",
				"versio": "1",
				"asset": "txt1.j3o"
			}
		}, {
			"id": "txt1",
			"tipussimbol": {
				"nom": "text"
			},
			"subtipus": "text normal",
			"textFormat": "#FFFFFF",
			"fonsFormat": null,
			"text": "4\/5",
			"px": "-0.65625",
			"pz": "0.174479",
			"rotacio": "0",
			"imatgeId": null,
			"cobertura": null,
			"durada": null,
			"transicio": null,
			"objecte3D": {
				"URL": "Models",
				"versio": "1",
				"asset": "txt1.j3o"
			}
		}, {
			"id": "txt1",
			"tipussimbol": {
				"nom": "text"
			},
			"subtipus": "text normal",
			"textFormat": "#FFFFFF",
			"fonsFormat": null,
			"text": "4\/5",
			"px": "0.0992025",
			"pz": "-0.320312",
			"rotacio": "0",
			"imatgeId": null,
			"cobertura": null,
			"durada": null,
			"transicio": null,
			"objecte3D": {
				"URL": "Models",
				"versio": "1",
				"asset": "txt1.j3o"
			}
		}, {
			"id": "txt1",
			"tipussimbol": {
				"nom": "text"
			},
			"subtipus": "text normal",
			"textFormat": "#FFFFFF",
			"fonsFormat": null,
			"text": "4\/5",
			"px": "0.467326",
			"pz": "-0.09375",
			"rotacio": "0",
			"imatgeId": null,
			"cobertura": null,
			"durada": null,
			"transicio": null,
			"objecte3D": {
				"URL": "Models",
				"versio": "1",
				"asset": "txt1.j3o"
			}
		}, {
			"id": "txt1",
			"tipussimbol": {
				"nom": "text"
			},
			"subtipus": "text normal",
			"textFormat": "#FFFFFF",
			"fonsFormat": null,
			"text": "4\/5",
			"px": "0.442708",
			"pz": "0.361979",
			"rotacio": "0",
			"imatgeId": null,
			"cobertura": null,
			"durada": null,
			"transicio": null,
			"objecte3D": {
				"URL": "Models",
				"versio": "1",
				"asset": "txt1.j3o"
			}
		}, {
			"id": "txt1",
			"tipussimbol": {
				"nom": "text"
			},
			"subtipus": "text normal",
			"textFormat": "#FFFFFF",
			"fonsFormat": null,
			"text": "4\/5",
			"px": "0.166667",
			"pz": "0.59375",
			"rotacio": "0",
			"imatgeId": null,
			"cobertura": null,
			"durada": null,
			"transicio": null,
			"objecte3D": {
				"URL": "Models",
				"versio": "1",
				"asset": "txt1.j3o"
			}
		}, {
			"id": "txt1",
			"tipussimbol": {
				"nom": "text"
			},
			"subtipus": "text normal",
			"textFormat": "#FFFFFF",
			"fonsFormat": null,
			"text": "4\/5",
			"px": "-0.12797",
			"pz": "0.421875",
			"rotacio": "0",
			"imatgeId": null,
			"cobertura": null,
			"durada": null,
			"transicio": null,
			"objecte3D": {
				"URL": "Models",
				"versio": "1",
				"asset": "txt1.j3o"
			}
		}, {
			"id": "txt1",
			"tipussimbol": {
				"nom": "text"
			},
			"subtipus": "text normal",
			"textFormat": "#FFFFFF",
			"fonsFormat": null,
			"text": "4\/5",
			"px": "-0.700521",
			"pz": "0.653646",
			"rotacio": "0",
			"imatgeId": null,
			"cobertura": null,
			"durada": null,
			"transicio": null,
			"objecte3D": {
				"URL": "Models",
				"versio": "1",
				"asset": "txt1.j3o"
			}
		}, {
			"id": "mr4",
			"tipussimbol": {
				"nom": "mar"
			},
			"subtipus": "mar f3",
			"textFormat": "-text-",
			"fonsFormat": null,
			"text": "",
			"px": "-0.268229",
			"pz": "0.570312",
			"rotacio": "0",
			"imatgeId": null,
			"cobertura": null,
			"durada": null,
			"transicio": null,
			"objecte3D": {
				"URL": "Models",
				"versio": "1",
				"asset": "mr4.j3o"
			}
		}, {
			"id": "mr4",
			"tipussimbol": {
				"nom": "mar"
			},
			"subtipus": "mar f3",
			"textFormat": "-text-",
			"fonsFormat": null,
			"text": "",
			"px": "-0.015625",
			"pz": "0.700521",
			"rotacio": "0",
			"imatgeId": null,
			"cobertura": null,
			"durada": null,
			"transicio": null,
			"objecte3D": {
				"URL": "Models",
				"versio": "1",
				"asset": "mr4.j3o"
			}
		}, {
			"id": "vnt5",
			"tipussimbol": {
				"nom": "vent"
			},
			"subtipus": "vent f5",
			"textFormat": "#3300CC",
			"fonsFormat": null,
			"text": "",
			"px": "-0.239583",
			"pz": "0.304688",
			"rotacio": "320",
			"imatgeId": null,
			"cobertura": null,
			"durada": null,
			"transicio": null,
			"objecte3D": {
				"URL": "Models",
				"versio": "1",
				"asset": "vnt5.j3o"
			}
		}, {
			"id": "mr4",
			"tipussimbol": {
				"nom": "mar"
			},
			"subtipus": "mar f3",
			"textFormat": "-text-",
			"fonsFormat": null,
			"text": "",
			"px": "-0.78125",
			"pz": "0.270833",
			"rotacio": "0",
			"imatgeId": null,
			"cobertura": null,
			"durada": null,
			"transicio": null,
			"objecte3D": {
				"URL": "Models",
				"versio": "1",
				"asset": "mr4.j3o"
			}
		}, {
			"id": "mr4",
			"tipussimbol": {
				"nom": "mar"
			},
			"subtipus": "mar f3",
			"textFormat": "-text-",
			"fonsFormat": null,
			"text": "",
			"px": "-0.09375",
			"pz": "0.286458",
			"rotacio": "0",
			"imatgeId": null,
			"cobertura": null,
			"durada": null,
			"transicio": null,
			"objecte3D": {
				"URL": "Models",
				"versio": "1",
				"asset": "mr4.j3o"
			}
		}, {
			"id": "mr4",
			"tipussimbol": {
				"nom": "mar"
			},
			"subtipus": "mar f3",
			"textFormat": "-text-",
			"fonsFormat": null,
			"text": "",
			"px": "-0.776042",
			"pz": "0.489583",
			"rotacio": "0",
			"imatgeId": null,
			"cobertura": null,
			"durada": null,
			"transicio": null,
			"objecte3D": {
				"URL": "Models",
				"versio": "1",
				"asset": "mr4.j3o"
			}
		}, {
			"id": "mr4",
			"tipussimbol": {
				"nom": "mar"
			},
			"subtipus": "mar f3",
			"textFormat": "-text-",
			"fonsFormat": null,
			"text": "",
			"px": "-0.497396",
			"pz": "0.5",
			"rotacio": "0",
			"imatgeId": null,
			"cobertura": null,
			"durada": null,
			"transicio": null,
			"objecte3D": {
				"URL": "Models",
				"versio": "1",
				"asset": "mr4.j3o"
			}
		}, {
			"id": "mr4",
			"tipussimbol": {
				"nom": "mar"
			},
			"subtipus": "mar f3",
			"textFormat": "-text-",
			"fonsFormat": null,
			"text": "",
			"px": "-0.671875",
			"pz": "0.773438",
			"rotacio": "0",
			"imatgeId": null,
			"cobertura": null,
			"durada": null,
			"transicio": null,
			"objecte3D": {
				"URL": "Models",
				"versio": "1",
				"asset": "mr4.j3o"
			}
		}, {
			"id": "mr4",
			"tipussimbol": {
				"nom": "mar"
			},
			"subtipus": "mar f3",
			"textFormat": "-text-",
			"fonsFormat": null,
			"text": "",
			"px": "0.179688",
			"pz": "0.0078125",
			"rotacio": "0",
			"imatgeId": null,
			"cobertura": null,
			"durada": null,
			"transicio": null,
			"objecte3D": {
				"URL": "Models",
				"versio": "1",
				"asset": "mr4.j3o"
			}
		}, {
			"id": "mr4",
			"tipussimbol": {
				"nom": "mar"
			},
			"subtipus": "mar f3",
			"textFormat": "-text-",
			"fonsFormat": null,
			"text": "",
			"px": "0.471354",
			"pz": "0.0885417",
			"rotacio": "0",
			"imatgeId": null,
			"cobertura": null,
			"durada": null,
			"transicio": null,
			"objecte3D": {
				"URL": "Models",
				"versio": "1",
				"asset": "mr4.j3o"
			}
		}, {
			"id": "mr4",
			"tipussimbol": {
				"nom": "mar"
			},
			"subtipus": "mar f3",
			"textFormat": "-text-",
			"fonsFormat": null,
			"text": "",
			"px": "0.0963542",
			"pz": "0.398438",
			"rotacio": "0",
			"imatgeId": null,
			"cobertura": null,
			"durada": null,
			"transicio": null,
			"objecte3D": {
				"URL": "Models",
				"versio": "1",
				"asset": "mr4.j3o"
			}
		}, {
			"id": "mr4",
			"tipussimbol": {
				"nom": "mar"
			},
			"subtipus": "mar f3",
			"textFormat": "-text-",
			"fonsFormat": null,
			"text": "",
			"px": "0.401042",
			"pz": "0.669271",
			"rotacio": "0",
			"imatgeId": null,
			"cobertura": null,
			"durada": null,
			"transicio": null,
			"objecte3D": {
				"URL": "Models",
				"versio": "1",
				"asset": "mr4.j3o"
			}
		}, {
			"id": "mr4",
			"tipussimbol": {
				"nom": "mar"
			},
			"subtipus": "mar f3",
			"textFormat": "-text-",
			"fonsFormat": null,
			"text": "",
			"px": "0.585938",
			"pz": "0.53125",
			"rotacio": "0",
			"imatgeId": null,
			"cobertura": null,
			"durada": null,
			"transicio": null,
			"objecte3D": {
				"URL": "Models",
				"versio": "1",
				"asset": "mr4.j3o"
			}
		}, {
			"id": "mr4",
			"tipussimbol": {
				"nom": "mar"
			},
			"subtipus": "mar f3",
			"textFormat": "-text-",
			"fonsFormat": null,
			"text": "",
			"px": "-0.46875",
			"pz": "-0.0442708",
			"rotacio": "0",
			"imatgeId": null,
			"cobertura": null,
			"durada": null,
			"transicio": null,
			"objecte3D": {
				"URL": "Models",
				"versio": "1",
				"asset": "mr4.j3o"
			}
		}, {
			"id": "mr4",
			"tipussimbol": {
				"nom": "mar"
			},
			"subtipus": "mar f3",
			"textFormat": "-text-",
			"fonsFormat": null,
			"text": "",
			"px": "0.046875",
			"pz": "-0.442708",
			"rotacio": "0",
			"imatgeId": null,
			"cobertura": null,
			"durada": null,
			"transicio": null,
			"objecte3D": {
				"URL": "Models",
				"versio": "1",
				"asset": "mr4.j3o"
			}
		}, {
			"id": "mr4",
			"tipussimbol": {
				"nom": "mar"
			},
			"subtipus": "mar f3",
			"textFormat": "-text-",
			"fonsFormat": null,
			"text": "",
			"px": "0.455729",
			"pz": "-0.221354",
			"rotacio": "0",
			"imatgeId": null,
			"cobertura": null,
			"durada": null,
			"transicio": null,
			"objecte3D": {
				"URL": "Models",
				"versio": "1",
				"asset": "mr4.j3o"
			}
		}]
	}, {
		"id": "346039",
		"nom": "3dies",
		"ordre": "6",
		"estat": "Actiu",
		"transicio": "0",
		"tnom": "tall",
		"tduracio": "0",
		"simbols": [{
			"id": "map2",
			"tipussimbol": {
				"nom": "mapa"
			},
			"subtipus": "Balears previssio",
			"textFormat": "",
			"fonsFormat": null,
			"text": "",
			"px": "0",
			"pz": "0",
			"rotacio": "0",
			"imatgeId": null,
			"cobertura": null,
			"durada": null,
			"transicio": null,
			"objecte3D": {
				"URL": "Models",
				"versio": "1",
				"asset": "mapa_balears4.j3o"
			}
		}, {
			"id": "rut22",
			"tipussimbol": {
				"nom": "ruta"
			},
			"subtipus": "r_balear_previsio",
			"textFormat": "",
			"fonsFormat": null,
			"text": "",
			"px": "0",
			"pz": "0",
			"rotacio": "0",
			"imatgeId": null,
			"cobertura": null,
			"durada": null,
			"transicio": null,
			"objecte3D": {
				"URL": "Models",
				"versio": "1",
				"asset": "rut22"
			}
		}, {
			"id": "txt1",
			"tipussimbol": {
				"nom": "text"
			},
			"subtipus": "text normal",
			"textFormat": "#FFFFFF",
			"fonsFormat": null,
			"text": "DIJOUS 1",
			"px": "-0.0794678",
			"pz": "-0.820841",
			"rotacio": "0",
			"imatgeId": null,
			"cobertura": null,
			"durada": null,
			"transicio": null,
			"objecte3D": {
				"URL": "Models",
				"versio": "1",
				"asset": "txt1.j3o"
			}
		}, {
			"id": "txt1",
			"tipussimbol": {
				"nom": "text"
			},
			"subtipus": "text normal",
			"textFormat": "#FFFFFF",
			"fonsFormat": null,
			"text": "DIVENDRES 2",
			"px": "0.335205",
			"pz": "-0.823446",
			"rotacio": "0",
			"imatgeId": null,
			"cobertura": null,
			"durada": null,
			"transicio": null,
			"objecte3D": {
				"URL": "Models",
				"versio": "1",
				"asset": "txt1.j3o"
			}
		}, {
			"id": "txt1",
			"tipussimbol": {
				"nom": "text"
			},
			"subtipus": "text normal",
			"textFormat": "#FFFFFF",
			"fonsFormat": null,
			"text": "DISSABTE 3",
			"px": "0.766602",
			"pz": "-0.820841",
			"rotacio": "0",
			"imatgeId": null,
			"cobertura": null,
			"durada": null,
			"transicio": null,
			"objecte3D": {
				"URL": "Models",
				"versio": "1",
				"asset": "txt1.j3o"
			}
		}, {
			"id": "bas12",
			"tipussimbol": {
				"nom": "basic"
			},
			"subtipus": "sol núvol negre",
			"textFormat": "",
			"fonsFormat": null,
			"text": "",
			"px": "0.394287",
			"pz": "-0.708333",
			"rotacio": "0",
			"imatgeId": null,
			"cobertura": null,
			"durada": null,
			"transicio": null,
			"objecte3D": {
				"URL": "Models",
				"versio": "1",
				"asset": "bas12.j3o"
			}
		}, {
			"id": "bas12",
			"tipussimbol": {
				"nom": "basic"
			},
			"subtipus": "sol núvol negre",
			"textFormat": "",
			"fonsFormat": null,
			"text": "",
			"px": "-0.241252",
			"pz": "-0.158854",
			"rotacio": "0",
			"imatgeId": null,
			"cobertura": null,
			"durada": null,
			"transicio": null,
			"objecte3D": {
				"URL": "Models",
				"versio": "1",
				"asset": "bas12.j3o"
			}
		}, {
			"id": "bas12",
			"tipussimbol": {
				"nom": "basic"
			},
			"subtipus": "sol núvol negre",
			"textFormat": "",
			"fonsFormat": null,
			"text": "",
			"px": "0.200277",
			"pz": "-0.151042",
			"rotacio": "0",
			"imatgeId": null,
			"cobertura": null,
			"durada": null,
			"transicio": null,
			"objecte3D": {
				"URL": "Models",
				"versio": "1",
				"asset": "bas12.j3o"
			}
		}, {
			"id": "bas12",
			"tipussimbol": {
				"nom": "basic"
			},
			"subtipus": "sol núvol negre",
			"textFormat": "",
			"fonsFormat": null,
			"text": "",
			"px": "-0.0421956",
			"pz": "-0.687541",
			"rotacio": "0",
			"imatgeId": null,
			"cobertura": null,
			"durada": null,
			"transicio": null,
			"objecte3D": {
				"URL": "Models",
				"versio": "1",
				"asset": "bas12.j3o"
			}
		}, {
			"id": "bastxt5",
			"tipussimbol": {
				"nom": "basicText"
			},
			"subtipus": "temp igual",
			"textFormat": "#339900",
			"fonsFormat": null,
			"text": "",
			"px": "0.224487",
			"pz": "-0.67688",
			"rotacio": "0",
			"imatgeId": null,
			"cobertura": null,
			"durada": null,
			"transicio": null,
			"objecte3D": {
				"URL": "Models",
				"versio": "1",
				"asset": "bastxt5.j3o"
			}
		}, {
			"id": "bas12",
			"tipussimbol": {
				"nom": "basic"
			},
			"subtipus": "sol núvol negre",
			"textFormat": "",
			"fonsFormat": null,
			"text": "",
			"px": "0.733643",
			"pz": "-0.434937",
			"rotacio": "0",
			"imatgeId": null,
			"cobertura": null,
			"durada": null,
			"transicio": null,
			"objecte3D": {
				"URL": "Models",
				"versio": "1",
				"asset": "bas12.j3o"
			}
		}, {
			"id": "bastxt5",
			"tipussimbol": {
				"nom": "basicText"
			},
			"subtipus": "temp igual",
			"textFormat": "#339900",
			"fonsFormat": null,
			"text": "",
			"px": "-0.232869",
			"pz": "-0.684692",
			"rotacio": "0",
			"imatgeId": null,
			"cobertura": null,
			"durada": null,
			"transicio": null,
			"objecte3D": {
				"URL": "Models",
				"versio": "1",
				"asset": "bastxt5.j3o"
			}
		}, {
			"id": "bastxt2",
			"tipussimbol": {
				"nom": "basic"
			},
			"subtipus": "pluja",
			"textFormat": "#8888FF",
			"fonsFormat": null,
			"text": "",
			"px": "-0.109538",
			"pz": "-0.453125",
			"rotacio": "0",
			"imatgeId": null,
			"cobertura": null,
			"durada": null,
			"transicio": null,
			"objecte3D": {
				"URL": "Models",
				"versio": "1",
				"asset": "bastxt2.j3o"
			}
		}, {
			"id": "bas12",
			"tipussimbol": {
				"nom": "basic"
			},
			"subtipus": "sol núvol negre",
			"textFormat": "",
			"fonsFormat": null,
			"text": "",
			"px": "0.317708",
			"pz": "-0.442708",
			"rotacio": "0",
			"imatgeId": null,
			"cobertura": null,
			"durada": null,
			"transicio": null,
			"objecte3D": {
				"URL": "Models",
				"versio": "1",
				"asset": "bas12.j3o"
			}
		}, {
			"id": "bas12",
			"tipussimbol": {
				"nom": "basic"
			},
			"subtipus": "sol núvol negre",
			"textFormat": "",
			"fonsFormat": null,
			"text": "",
			"px": "-0.123088",
			"pz": "-0.463542",
			"rotacio": "0",
			"imatgeId": null,
			"cobertura": null,
			"durada": null,
			"transicio": null,
			"objecte3D": {
				"URL": "Models",
				"versio": "1",
				"asset": "bas12.j3o"
			}
		}, {
			"id": "bastxt4",
			"tipussimbol": {
				"nom": "basicText"
			},
			"subtipus": "temp calor",
			"textFormat": "#CC0033",
			"fonsFormat": null,
			"text": "",
			"px": "0.625",
			"pz": "-0.6875",
			"rotacio": "0",
			"imatgeId": null,
			"cobertura": null,
			"durada": null,
			"transicio": null,
			"objecte3D": {
				"URL": "Models",
				"versio": "1",
				"asset": "bastxt4.j3o"
			}
		}, {
			"id": "bas12",
			"tipussimbol": {
				"nom": "basic"
			},
			"subtipus": "sol núvol negre",
			"textFormat": "",
			"fonsFormat": null,
			"text": "",
			"px": "0.627604",
			"pz": "-0.132812",
			"rotacio": "0",
			"imatgeId": null,
			"cobertura": null,
			"durada": null,
			"transicio": null,
			"objecte3D": {
				"URL": "Models",
				"versio": "1",
				"asset": "bas12.j3o"
			}
		}, {
			"id": "bas12",
			"tipussimbol": {
				"nom": "basic"
			},
			"subtipus": "sol núvol negre",
			"textFormat": "",
			"fonsFormat": null,
			"text": "",
			"px": "0.815104",
			"pz": "-0.703125",
			"rotacio": "0",
			"imatgeId": null,
			"cobertura": null,
			"durada": null,
			"transicio": null,
			"objecte3D": {
				"URL": "Models",
				"versio": "1",
				"asset": "bas12.j3o"
			}
		}, {
			"id": "bastxt2",
			"tipussimbol": {
				"nom": "basic"
			},
			"subtipus": "pluja",
			"textFormat": "#8888FF",
			"fonsFormat": null,
			"text": "",
			"px": "0.744792",
			"pz": "-0.440104",
			"rotacio": "0",
			"imatgeId": null,
			"cobertura": null,
			"durada": null,
			"transicio": null,
			"objecte3D": {
				"URL": "Models",
				"versio": "1",
				"asset": "bastxt2.j3o"
			}
		}, {
			"id": "bastxt2",
			"tipussimbol": {
				"nom": "basic"
			},
			"subtipus": "pluja",
			"textFormat": "#8888FF",
			"fonsFormat": null,
			"text": "",
			"px": "0.198486",
			"pz": "-0.148438",
			"rotacio": "0",
			"imatgeId": null,
			"cobertura": null,
			"durada": null,
			"transicio": null,
			"objecte3D": {
				"URL": "Models",
				"versio": "1",
				"asset": "bastxt2.j3o"
			}
		}]
	}]
}
